currentBudgetLeft: 44 budgetUsedThisEva: 6 currentPlannedEvents: 0
currentBudgetLeft: 89 budgetUsedThisEva: 5 currentPlannedEvents: 0
currentBudgetLeft: 132 budgetUsedThisEva: 7 currentPlannedEvents: 0
currentBudgetLeft: 180 budgetUsedThisEva: 2 currentPlannedEvents: 0
currentBudgetLeft: 224 budgetUsedThisEva: 6 currentPlannedEvents: 0
currentBudgetLeft: 266 budgetUsedThisEva: 8 currentPlannedEvents: 0
currentBudgetLeft: 312 budgetUsedThisEva: 4 currentPlannedEvents: 0
currentBudgetLeft: 359 budgetUsedThisEva: 3 currentPlannedEvents: 0
currentBudgetLeft: 406 budgetUsedThisEva: 3 currentPlannedEvents: 0
currentBudgetLeft: 452 budgetUsedThisEva: 4 currentPlannedEvents: 0
currentBudgetLeft: 498 budgetUsedThisEva: 4 currentPlannedEvents: 0
currentBudgetLeft: 543 budgetUsedThisEva: 5 currentPlannedEvents: 0
currentBudgetLeft: 582 budgetUsedThisEva: 11 currentPlannedEvents: 0
currentBudgetLeft: 628 budgetUsedThisEva: 4 currentPlannedEvents: 0
currentBudgetLeft: 670 budgetUsedThisEva: 8 currentPlannedEvents: 0
currentBudgetLeft: 712 budgetUsedThisEva: 8 currentPlannedEvents: 0
currentBudgetLeft: 757 budgetUsedThisEva: 5 currentPlannedEvents: 0
currentBudgetLeft: 806 budgetUsedThisEva: 1 currentPlannedEvents: 0
currentBudgetLeft: 856 budgetUsedThisEva: 0 currentPlannedEvents: 0
currentBudgetLeft: 899 budgetUsedThisEva: 7 currentPlannedEvents: 0
currentBudgetLeft: 938 budgetUsedThisEva: 11 currentPlannedEvents: 0
currentBudgetLeft: 982 budgetUsedThisEva: 6 currentPlannedEvents: 0
currentBudgetLeft: 1025 budgetUsedThisEva: 7 currentPlannedEvents: 0
currentBudgetLeft: 1069 budgetUsedThisEva: 6 currentPlannedEvents: 0
currentBudgetLeft: 1115 budgetUsedThisEva: 4 currentPlannedEvents: 0
currentBudgetLeft: 1159 budgetUsedThisEva: 6 currentPlannedEvents: 0
currentBudgetLeft: 1196 budgetUsedThisEva: 13 currentPlannedEvents: 0
currentBudgetLeft: 1235 budgetUsedThisEva: 11 currentPlannedEvents: 0
currentBudgetLeft: 1277 budgetUsedThisEva: 8 currentPlannedEvents: 0
currentBudgetLeft: 1321 budgetUsedThisEva: 6 currentPlannedEvents: 0
currentBudgetLeft: 1364 budgetUsedThisEva: 7 currentPlannedEvents: 0
currentBudgetLeft: 1411 budgetUsedThisEva: 3 currentPlannedEvents: 0
currentBudgetLeft: 1457 budgetUsedThisEva: 4 currentPlannedEvents: 0
currentBudgetLeft: 1493 budgetUsedThisEva: 14 currentPlannedEvents: 0
currentBudgetLeft: 1531 budgetUsedThisEva: 12 currentPlannedEvents: 0
currentBudgetLeft: 1564 budgetUsedThisEva: 17 currentPlannedEvents: 0
currentBudgetLeft: 1610 budgetUsedThisEva: 4 currentPlannedEvents: 0
currentBudgetLeft: 1654 budgetUsedThisEva: 6 currentPlannedEvents: 0
currentBudgetLeft: 1696 budgetUsedThisEva: 8 currentPlannedEvents: 0
currentBudgetLeft: 1743 budgetUsedThisEva: 3 currentPlannedEvents: 0
currentBudgetLeft: 1787 budgetUsedThisEva: 6 currentPlannedEvents: 0
currentBudgetLeft: 1835 budgetUsedThisEva: 2 currentPlannedEvents: 0
currentBudgetLeft: 1878 budgetUsedThisEva: 7 currentPlannedEvents: 0
currentBudgetLeft: 1924 budgetUsedThisEva: 4 currentPlannedEvents: 0
currentBudgetLeft: 1972 budgetUsedThisEva: 2 currentPlannedEvents: 0
currentBudgetLeft: 2013 budgetUsedThisEva: 9 currentPlannedEvents: 0
currentBudgetLeft: 2059 budgetUsedThisEva: 4 currentPlannedEvents: 0
currentBudgetLeft: 2109 budgetUsedThisEva: 0 currentPlannedEvents: 0
currentBudgetLeft: 2147 budgetUsedThisEva: 12 currentPlannedEvents: 0
currentBudgetLeft: 2179 budgetUsedThisEva: 18 currentPlannedEvents: 0
currentBudgetLeft: 2219 budgetUsedThisEva: 10 currentPlannedEvents: 0
currentBudgetLeft: 2261 budgetUsedThisEva: 8 currentPlannedEvents: 0
currentBudgetLeft: 2306 budgetUsedThisEva: 5 currentPlannedEvents: 0
currentBudgetLeft: 2348 budgetUsedThisEva: 8 currentPlannedEvents: 0
currentBudgetLeft: 2389 budgetUsedThisEva: 9 currentPlannedEvents: 0
currentBudgetLeft: 2434 budgetUsedThisEva: 5 currentPlannedEvents: 0
currentBudgetLeft: 2477 budgetUsedThisEva: 7 currentPlannedEvents: 0
currentBudgetLeft: 2525 budgetUsedThisEva: 2 currentPlannedEvents: 0
currentBudgetLeft: 2573 budgetUsedThisEva: 2 currentPlannedEvents: 0
currentBudgetLeft: 2623 budgetUsedThisEva: 0 currentPlannedEvents: 0
currentBudgetLeft: 2673 budgetUsedThisEva: 0 currentPlannedEvents: 0
currentBudgetLeft: 2718 budgetUsedThisEva: 5 currentPlannedEvents: 0
currentBudgetLeft: 2768 budgetUsedThisEva: 0 currentPlannedEvents: 0
currentBudgetLeft: 2814 budgetUsedThisEva: 4 currentPlannedEvents: 0
currentBudgetLeft: 2861 budgetUsedThisEva: 3 currentPlannedEvents: 0
currentBudgetLeft: 2907 budgetUsedThisEva: 4 currentPlannedEvents: 0
currentBudgetLeft: 2954 budgetUsedThisEva: 3 currentPlannedEvents: 0
currentBudgetLeft: 3002 budgetUsedThisEva: 2 currentPlannedEvents: 0
currentBudgetLeft: 3052 budgetUsedThisEva: 0 currentPlannedEvents: 0
currentBudgetLeft: 3078 budgetUsedThisEva: 24 currentPlannedEvents: 0
currentBudgetLeft: 3123 budgetUsedThisEva: 5 currentPlannedEvents: 0
currentBudgetLeft: 3159 budgetUsedThisEva: 14 currentPlannedEvents: 0
currentBudgetLeft: 3200 budgetUsedThisEva: 9 currentPlannedEvents: 0
currentBudgetLeft: 3239 budgetUsedThisEva: 11 currentPlannedEvents: 0
currentBudgetLeft: 3269 budgetUsedThisEva: 20 currentPlannedEvents: 0
currentBudgetLeft: 3308 budgetUsedThisEva: 11 currentPlannedEvents: 0
currentBudgetLeft: 3346 budgetUsedThisEva: 12 currentPlannedEvents: 0
currentBudgetLeft: 3389 budgetUsedThisEva: 7 currentPlannedEvents: 0
currentBudgetLeft: 3431 budgetUsedThisEva: 8 currentPlannedEvents: 0
currentBudgetLeft: 3476 budgetUsedThisEva: 5 currentPlannedEvents: 0
currentBudgetLeft: 3521 budgetUsedThisEva: 5 currentPlannedEvents: 0
currentBudgetLeft: 3569 budgetUsedThisEva: 2 currentPlannedEvents: 0
currentBudgetLeft: 3618 budgetUsedThisEva: 1 currentPlannedEvents: 0
currentBudgetLeft: 3668 budgetUsedThisEva: 0 currentPlannedEvents: 0
currentBudgetLeft: 3718 budgetUsedThisEva: 0 currentPlannedEvents: 0
currentBudgetLeft: 3761 budgetUsedThisEva: 7 currentPlannedEvents: 0
currentBudgetLeft: 3807 budgetUsedThisEva: 4 currentPlannedEvents: 0
currentBudgetLeft: 3854 budgetUsedThisEva: 3 currentPlannedEvents: 0
currentBudgetLeft: 3902 budgetUsedThisEva: 2 currentPlannedEvents: 0
currentBudgetLeft: 3938 budgetUsedThisEva: 14 currentPlannedEvents: 0
currentBudgetLeft: 3979 budgetUsedThisEva: 9 currentPlannedEvents: 0
currentBudgetLeft: 4020 budgetUsedThisEva: 9 currentPlannedEvents: 0
currentBudgetLeft: 4066 budgetUsedThisEva: 4 currentPlannedEvents: 0
currentBudgetLeft: 4098 budgetUsedThisEva: 18 currentPlannedEvents: 0
currentBudgetLeft: 4141 budgetUsedThisEva: 7 currentPlannedEvents: 0
currentBudgetLeft: 4187 budgetUsedThisEva: 4 currentPlannedEvents: 0
currentBudgetLeft: 4232 budgetUsedThisEva: 5 currentPlannedEvents: 0
currentBudgetLeft: 4277 budgetUsedThisEva: 5 currentPlannedEvents: 0
currentBudgetLeft: 4313 budgetUsedThisEva: 14 currentPlannedEvents: 0
currentBudgetLeft: 4352 budgetUsedThisEva: 11 currentPlannedEvents: 0
currentBudgetLeft: 4396 budgetUsedThisEva: 6 currentPlannedEvents: 0
currentBudgetLeft: 4436 budgetUsedThisEva: 10 currentPlannedEvents: 0
currentBudgetLeft: 4480 budgetUsedThisEva: 6 currentPlannedEvents: 0
currentBudgetLeft: 4524 budgetUsedThisEva: 6 currentPlannedEvents: 0
currentBudgetLeft: 4568 budgetUsedThisEva: 6 currentPlannedEvents: 0
currentBudgetLeft: 4618 budgetUsedThisEva: 0 currentPlannedEvents: 0
currentBudgetLeft: 4658 budgetUsedThisEva: 10 currentPlannedEvents: 0
currentBudgetLeft: 4703 budgetUsedThisEva: 5 currentPlannedEvents: 0
currentBudgetLeft: 4748 budgetUsedThisEva: 5 currentPlannedEvents: 0
currentBudgetLeft: 4791 budgetUsedThisEva: 7 currentPlannedEvents: 0
currentBudgetLeft: 4829 budgetUsedThisEva: 12 currentPlannedEvents: 0
currentBudgetLeft: 4866 budgetUsedThisEva: 13 currentPlannedEvents: 0
currentBudgetLeft: 4905 budgetUsedThisEva: 11 currentPlannedEvents: 0
currentBudgetLeft: 4943 budgetUsedThisEva: 12 currentPlannedEvents: 0
currentBudgetLeft: 4984 budgetUsedThisEva: 9 currentPlannedEvents: 0
currentBudgetLeft: 5027 budgetUsedThisEva: 7 currentPlannedEvents: 0
currentBudgetLeft: 5073 budgetUsedThisEva: 4 currentPlannedEvents: 0
currentBudgetLeft: 5119 budgetUsedThisEva: 4 currentPlannedEvents: 0
currentBudgetLeft: 5167 budgetUsedThisEva: 2 currentPlannedEvents: 0
currentBudgetLeft: 5217 budgetUsedThisEva: 0 currentPlannedEvents: 0
currentBudgetLeft: 5264 budgetUsedThisEva: 3 currentPlannedEvents: 0
currentBudgetLeft: 5304 budgetUsedThisEva: 10 currentPlannedEvents: 0
currentBudgetLeft: 5348 budgetUsedThisEva: 6 currentPlannedEvents: 0
currentBudgetLeft: 5393 budgetUsedThisEva: 5 currentPlannedEvents: 0
currentBudgetLeft: 5435 budgetUsedThisEva: 8 currentPlannedEvents: 0
currentBudgetLeft: 5474 budgetUsedThisEva: 11 currentPlannedEvents: 0
currentBudgetLeft: 5517 budgetUsedThisEva: 7 currentPlannedEvents: 0
currentBudgetLeft: 5552 budgetUsedThisEva: 15 currentPlannedEvents: 0
currentBudgetLeft: 5596 budgetUsedThisEva: 6 currentPlannedEvents: 0
currentBudgetLeft: 5638 budgetUsedThisEva: 8 currentPlannedEvents: 0
currentBudgetLeft: 5683 budgetUsedThisEva: 5 currentPlannedEvents: 0
currentBudgetLeft: 5722 budgetUsedThisEva: 11 currentPlannedEvents: 0
currentBudgetLeft: 5764 budgetUsedThisEva: 8 currentPlannedEvents: 0
currentBudgetLeft: 5809 budgetUsedThisEva: 5 currentPlannedEvents: 0
currentBudgetLeft: 5853 budgetUsedThisEva: 6 currentPlannedEvents: 0
currentBudgetLeft: 5892 budgetUsedThisEva: 11 currentPlannedEvents: 0
currentBudgetLeft: 5934 budgetUsedThisEva: 8 currentPlannedEvents: 0
currentBudgetLeft: 5981 budgetUsedThisEva: 3 currentPlannedEvents: 0
currentBudgetLeft: 6024 budgetUsedThisEva: 7 currentPlannedEvents: 0
currentBudgetLeft: 6066 budgetUsedThisEva: 8 currentPlannedEvents: 0
currentBudgetLeft: 6108 budgetUsedThisEva: 8 currentPlannedEvents: 0
currentBudgetLeft: 6155 budgetUsedThisEva: 3 currentPlannedEvents: 0
currentBudgetLeft: 6195 budgetUsedThisEva: 10 currentPlannedEvents: 0
currentBudgetLeft: 6236 budgetUsedThisEva: 9 currentPlannedEvents: 0
currentBudgetLeft: 6279 budgetUsedThisEva: 7 currentPlannedEvents: 0
currentBudgetLeft: 6323 budgetUsedThisEva: 6 currentPlannedEvents: 0
currentBudgetLeft: 6361 budgetUsedThisEva: 12 currentPlannedEvents: 0
currentBudgetLeft: 6399 budgetUsedThisEva: 12 currentPlannedEvents: 0
currentBudgetLeft: 6442 budgetUsedThisEva: 7 currentPlannedEvents: 0
currentBudgetLeft: 6488 budgetUsedThisEva: 4 currentPlannedEvents: 0
currentBudgetLeft: 6533 budgetUsedThisEva: 5 currentPlannedEvents: 0
currentBudgetLeft: 6579 budgetUsedThisEva: 4 currentPlannedEvents: 0
currentBudgetLeft: 6626 budgetUsedThisEva: 3 currentPlannedEvents: 0
currentBudgetLeft: 6672 budgetUsedThisEva: 4 currentPlannedEvents: 0
currentBudgetLeft: 6721 budgetUsedThisEva: 1 currentPlannedEvents: 0
currentBudgetLeft: 6762 budgetUsedThisEva: 9 currentPlannedEvents: 0
currentBudgetLeft: 6805 budgetUsedThisEva: 7 currentPlannedEvents: 0
currentBudgetLeft: 6848 budgetUsedThisEva: 7 currentPlannedEvents: 0
currentBudgetLeft: 6895 budgetUsedThisEva: 3 currentPlannedEvents: 0
currentBudgetLeft: 6942 budgetUsedThisEva: 3 currentPlannedEvents: 0
currentBudgetLeft: 6985 budgetUsedThisEva: 7 currentPlannedEvents: 0
currentBudgetLeft: 7031 budgetUsedThisEva: 4 currentPlannedEvents: 0
currentBudgetLeft: 7080 budgetUsedThisEva: 1 currentPlannedEvents: 0
currentBudgetLeft: 7126 budgetUsedThisEva: 4 currentPlannedEvents: 0
currentBudgetLeft: 7167 budgetUsedThisEva: 9 currentPlannedEvents: 0
currentBudgetLeft: 7203 budgetUsedThisEva: 14 currentPlannedEvents: 0
currentBudgetLeft: 7248 budgetUsedThisEva: 5 currentPlannedEvents: 0
currentBudgetLeft: 7291 budgetUsedThisEva: 7 currentPlannedEvents: 0
currentBudgetLeft: 7313 budgetUsedThisEva: 28 currentPlannedEvents: 0
currentBudgetLeft: 7351 budgetUsedThisEva: 12 currentPlannedEvents: 0
currentBudgetLeft: 7391 budgetUsedThisEva: 10 currentPlannedEvents: 0
currentBudgetLeft: 7433 budgetUsedThisEva: 8 currentPlannedEvents: 0
currentBudgetLeft: 7469 budgetUsedThisEva: 14 currentPlannedEvents: 0
currentBudgetLeft: 7513 budgetUsedThisEva: 6 currentPlannedEvents: 0
currentBudgetLeft: 7559 budgetUsedThisEva: 4 currentPlannedEvents: 0
currentBudgetLeft: 7597 budgetUsedThisEva: 12 currentPlannedEvents: 0
currentBudgetLeft: 7642 budgetUsedThisEva: 5 currentPlannedEvents: 0
currentBudgetLeft: 7691 budgetUsedThisEva: 1 currentPlannedEvents: 0
currentBudgetLeft: 7733 budgetUsedThisEva: 8 currentPlannedEvents: 0
currentBudgetLeft: 7782 budgetUsedThisEva: 1 currentPlannedEvents: 0
currentBudgetLeft: 7831 budgetUsedThisEva: 1 currentPlannedEvents: 0
currentBudgetLeft: 7878 budgetUsedThisEva: 3 currentPlannedEvents: 0
currentBudgetLeft: 7926 budgetUsedThisEva: 2 currentPlannedEvents: 0
currentBudgetLeft: 7971 budgetUsedThisEva: 5 currentPlannedEvents: 0
currentBudgetLeft: 8006 budgetUsedThisEva: 15 currentPlannedEvents: 0
currentBudgetLeft: 8043 budgetUsedThisEva: 13 currentPlannedEvents: 0
currentBudgetLeft: 8087 budgetUsedThisEva: 6 currentPlannedEvents: 0
currentBudgetLeft: 8119 budgetUsedThisEva: 18 currentPlannedEvents: 0
currentBudgetLeft: 8160 budgetUsedThisEva: 9 currentPlannedEvents: 0
currentBudgetLeft: 8204 budgetUsedThisEva: 6 currentPlannedEvents: 0
currentBudgetLeft: 8242 budgetUsedThisEva: 12 currentPlannedEvents: 0
currentBudgetLeft: 8284 budgetUsedThisEva: 8 currentPlannedEvents: 0
currentBudgetLeft: 8330 budgetUsedThisEva: 4 currentPlannedEvents: 0
currentBudgetLeft: 8378 budgetUsedThisEva: 2 currentPlannedEvents: 0
currentBudgetLeft: 8427 budgetUsedThisEva: 1 currentPlannedEvents: 0
currentBudgetLeft: 8474 budgetUsedThisEva: 3 currentPlannedEvents: 0
currentBudgetLeft: 8520 budgetUsedThisEva: 4 currentPlannedEvents: 0
currentBudgetLeft: 8568 budgetUsedThisEva: 2 currentPlannedEvents: 0
currentBudgetLeft: 8607 budgetUsedThisEva: 11 currentPlannedEvents: 0
currentBudgetLeft: 8653 budgetUsedThisEva: 4 currentPlannedEvents: 0
currentBudgetLeft: 8696 budgetUsedThisEva: 7 currentPlannedEvents: 0
currentBudgetLeft: 8739 budgetUsedThisEva: 7 currentPlannedEvents: 0
currentBudgetLeft: 8777 budgetUsedThisEva: 12 currentPlannedEvents: 0
currentBudgetLeft: 8825 budgetUsedThisEva: 2 currentPlannedEvents: 0
currentBudgetLeft: 8871 budgetUsedThisEva: 4 currentPlannedEvents: 0
currentBudgetLeft: 8918 budgetUsedThisEva: 3 currentPlannedEvents: 0
currentBudgetLeft: 8962 budgetUsedThisEva: 6 currentPlannedEvents: 0
currentBudgetLeft: 9011 budgetUsedThisEva: 1 currentPlannedEvents: 0
currentBudgetLeft: 9057 budgetUsedThisEva: 4 currentPlannedEvents: 0
currentBudgetLeft: 9095 budgetUsedThisEva: 12 currentPlannedEvents: 0
currentBudgetLeft: 9128 budgetUsedThisEva: 17 currentPlannedEvents: 0
currentBudgetLeft: 9167 budgetUsedThisEva: 11 currentPlannedEvents: 0
currentBudgetLeft: 9213 budgetUsedThisEva: 4 currentPlannedEvents: 0
currentBudgetLeft: 9258 budgetUsedThisEva: 5 currentPlannedEvents: 0
currentBudgetLeft: 9303 budgetUsedThisEva: 5 currentPlannedEvents: 0
currentBudgetLeft: 9353 budgetUsedThisEva: 0 currentPlannedEvents: 0
currentBudgetLeft: 9403 budgetUsedThisEva: 0 currentPlannedEvents: 0
currentBudgetLeft: 9453 budgetUsedThisEva: 0 currentPlannedEvents: 0
currentBudgetLeft: 9503 budgetUsedThisEva: 0 currentPlannedEvents: 0
currentBudgetLeft: 9547 budgetUsedThisEva: 6 currentPlannedEvents: 0
currentBudgetLeft: 9597 budgetUsedThisEva: 0 currentPlannedEvents: 0
currentBudgetLeft: 9646 budgetUsedThisEva: 1 currentPlannedEvents: 0
currentBudgetLeft: 9696 budgetUsedThisEva: 0 currentPlannedEvents: 0
currentBudgetLeft: 9744 budgetUsedThisEva: 2 currentPlannedEvents: 0
currentBudgetLeft: 9790 budgetUsedThisEva: 4 currentPlannedEvents: 0
currentBudgetLeft: 9838 budgetUsedThisEva: 2 currentPlannedEvents: 0
currentBudgetLeft: 9887 budgetUsedThisEva: 1 currentPlannedEvents: 0
currentBudgetLeft: 9922 budgetUsedThisEva: 15 currentPlannedEvents: 0
currentBudgetLeft: 9961 budgetUsedThisEva: 11 currentPlannedEvents: 0
currentBudgetLeft: 10007 budgetUsedThisEva: 4 currentPlannedEvents: 0
currentBudgetLeft: 10042 budgetUsedThisEva: 15 currentPlannedEvents: 0
currentBudgetLeft: 10074 budgetUsedThisEva: 18 currentPlannedEvents: 0
currentBudgetLeft: 10115 budgetUsedThisEva: 9 currentPlannedEvents: 0
currentBudgetLeft: 10161 budgetUsedThisEva: 4 currentPlannedEvents: 0
currentBudgetLeft: 10207 budgetUsedThisEva: 4 currentPlannedEvents: 0
currentBudgetLeft: 10250 budgetUsedThisEva: 7 currentPlannedEvents: 0
currentBudgetLeft: 10299 budgetUsedThisEva: 1 currentPlannedEvents: 0
currentBudgetLeft: 10349 budgetUsedThisEva: 0 currentPlannedEvents: 0
currentBudgetLeft: 10399 budgetUsedThisEva: 0 currentPlannedEvents: 0
currentBudgetLeft: 10443 budgetUsedThisEva: 6 currentPlannedEvents: 0
currentBudgetLeft: 10479 budgetUsedThisEva: 14 currentPlannedEvents: 0
currentBudgetLeft: 10521 budgetUsedThisEva: 8 currentPlannedEvents: 0
currentBudgetLeft: 10567 budgetUsedThisEva: 4 currentPlannedEvents: 0
currentBudgetLeft: 10606 budgetUsedThisEva: 11 currentPlannedEvents: 0
currentBudgetLeft: 10645 budgetUsedThisEva: 11 currentPlannedEvents: 0
currentBudgetLeft: 10687 budgetUsedThisEva: 8 currentPlannedEvents: 0
currentBudgetLeft: 10723 budgetUsedThisEva: 14 currentPlannedEvents: 0
currentBudgetLeft: 10757 budgetUsedThisEva: 16 currentPlannedEvents: 0
currentBudgetLeft: 10800 budgetUsedThisEva: 7 currentPlannedEvents: 0
currentBudgetLeft: 10844 budgetUsedThisEva: 6 currentPlannedEvents: 0
currentBudgetLeft: 10890 budgetUsedThisEva: 4 currentPlannedEvents: 0
currentBudgetLeft: 10936 budgetUsedThisEva: 4 currentPlannedEvents: 0
currentBudgetLeft: 10982 budgetUsedThisEva: 4 currentPlannedEvents: 0
currentBudgetLeft: 11024 budgetUsedThisEva: 8 currentPlannedEvents: 0
currentBudgetLeft: 11071 budgetUsedThisEva: 3 currentPlannedEvents: 0
currentBudgetLeft: 11109 budgetUsedThisEva: 12 currentPlannedEvents: 0
currentBudgetLeft: 11156 budgetUsedThisEva: 3 currentPlannedEvents: 0
currentBudgetLeft: 11202 budgetUsedThisEva: 4 currentPlannedEvents: 0
currentBudgetLeft: 11249 budgetUsedThisEva: 3 currentPlannedEvents: 0
currentBudgetLeft: 11296 budgetUsedThisEva: 3 currentPlannedEvents: 0
currentBudgetLeft: 11341 budgetUsedThisEva: 5 currentPlannedEvents: 0
currentBudgetLeft: 11382 budgetUsedThisEva: 9 currentPlannedEvents: 0
currentBudgetLeft: 11426 budgetUsedThisEva: 6 currentPlannedEvents: 0
currentBudgetLeft: 11474 budgetUsedThisEva: 2 currentPlannedEvents: 0
currentBudgetLeft: 11522 budgetUsedThisEva: 2 currentPlannedEvents: 0
currentBudgetLeft: 11562 budgetUsedThisEva: 10 currentPlannedEvents: 0
currentBudgetLeft: 11603 budgetUsedThisEva: 9 currentPlannedEvents: 0
currentBudgetLeft: 11651 budgetUsedThisEva: 2 currentPlannedEvents: 0
currentBudgetLeft: 11696 budgetUsedThisEva: 5 currentPlannedEvents: 0
currentBudgetLeft: 11740 budgetUsedThisEva: 6 currentPlannedEvents: 0
currentBudgetLeft: 11786 budgetUsedThisEva: 4 currentPlannedEvents: 0
currentBudgetLeft: 11834 budgetUsedThisEva: 2 currentPlannedEvents: 0
currentBudgetLeft: 11884 budgetUsedThisEva: 0 currentPlannedEvents: 0
currentBudgetLeft: 11933 budgetUsedThisEva: 1 currentPlannedEvents: 0
currentBudgetLeft: 11982 budgetUsedThisEva: 1 currentPlannedEvents: 0
currentBudgetLeft: 12032 budgetUsedThisEva: 0 currentPlannedEvents: 0
currentBudgetLeft: 12074 budgetUsedThisEva: 8 currentPlannedEvents: 0
currentBudgetLeft: 12118 budgetUsedThisEva: 6 currentPlannedEvents: 0
currentBudgetLeft: 12166 budgetUsedThisEva: 2 currentPlannedEvents: 0
currentBudgetLeft: 12197 budgetUsedThisEva: 19 currentPlannedEvents: 0
currentBudgetLeft: 12238 budgetUsedThisEva: 9 currentPlannedEvents: 0
currentBudgetLeft: 12276 budgetUsedThisEva: 12 currentPlannedEvents: 0
currentBudgetLeft: 12322 budgetUsedThisEva: 4 currentPlannedEvents: 0
currentBudgetLeft: 12363 budgetUsedThisEva: 9 currentPlannedEvents: 0
currentBudgetLeft: 12411 budgetUsedThisEva: 2 currentPlannedEvents: 0
currentBudgetLeft: 12458 budgetUsedThisEva: 3 currentPlannedEvents: 0
currentBudgetLeft: 12507 budgetUsedThisEva: 1 currentPlannedEvents: 0
currentBudgetLeft: 12552 budgetUsedThisEva: 5 currentPlannedEvents: 0
currentBudgetLeft: 12591 budgetUsedThisEva: 11 currentPlannedEvents: 0
currentBudgetLeft: 12629 budgetUsedThisEva: 12 currentPlannedEvents: 0
currentBudgetLeft: 12670 budgetUsedThisEva: 9 currentPlannedEvents: 0
currentBudgetLeft: 12711 budgetUsedThisEva: 9 currentPlannedEvents: 0
currentBudgetLeft: 12752 budgetUsedThisEva: 9 currentPlannedEvents: 0
currentBudgetLeft: 12790 budgetUsedThisEva: 12 currentPlannedEvents: 0
currentBudgetLeft: 12831 budgetUsedThisEva: 9 currentPlannedEvents: 0
currentBudgetLeft: 12879 budgetUsedThisEva: 2 currentPlannedEvents: 0
currentBudgetLeft: 12927 budgetUsedThisEva: 2 currentPlannedEvents: 0
currentBudgetLeft: 12973 budgetUsedThisEva: 4 currentPlannedEvents: 0
currentBudgetLeft: 13013 budgetUsedThisEva: 10 currentPlannedEvents: 0
currentBudgetLeft: 13056 budgetUsedThisEva: 7 currentPlannedEvents: 0
currentBudgetLeft: 13100 budgetUsedThisEva: 6 currentPlannedEvents: 0
currentBudgetLeft: 13140 budgetUsedThisEva: 10 currentPlannedEvents: 0
currentBudgetLeft: 13182 budgetUsedThisEva: 8 currentPlannedEvents: 0
currentBudgetLeft: 13225 budgetUsedThisEva: 7 currentPlannedEvents: 0
currentBudgetLeft: 13270 budgetUsedThisEva: 5 currentPlannedEvents: 0
currentBudgetLeft: 13316 budgetUsedThisEva: 4 currentPlannedEvents: 0
currentBudgetLeft: 13352 budgetUsedThisEva: 14 currentPlannedEvents: 0
currentBudgetLeft: 13385 budgetUsedThisEva: 17 currentPlannedEvents: 0
currentBudgetLeft: 13429 budgetUsedThisEva: 6 currentPlannedEvents: 0
currentBudgetLeft: 13473 budgetUsedThisEva: 6 currentPlannedEvents: 0
currentBudgetLeft: 13520 budgetUsedThisEva: 3 currentPlannedEvents: 0
currentBudgetLeft: 13564 budgetUsedThisEva: 6 currentPlannedEvents: 0
currentBudgetLeft: 13612 budgetUsedThisEva: 2 currentPlannedEvents: 0
currentBudgetLeft: 13659 budgetUsedThisEva: 3 currentPlannedEvents: 0
currentBudgetLeft: 13709 budgetUsedThisEva: 0 currentPlannedEvents: 0
currentBudgetLeft: 13759 budgetUsedThisEva: 0 currentPlannedEvents: 0
currentBudgetLeft: 13795 budgetUsedThisEva: 14 currentPlannedEvents: 0
currentBudgetLeft: 13836 budgetUsedThisEva: 9 currentPlannedEvents: 0
currentBudgetLeft: 13883 budgetUsedThisEva: 3 currentPlannedEvents: 0
currentBudgetLeft: 13929 budgetUsedThisEva: 4 currentPlannedEvents: 0
currentBudgetLeft: 13971 budgetUsedThisEva: 8 currentPlannedEvents: 0
currentBudgetLeft: 14020 budgetUsedThisEva: 1 currentPlannedEvents: 0
currentBudgetLeft: 14070 budgetUsedThisEva: 0 currentPlannedEvents: 0
currentBudgetLeft: 14113 budgetUsedThisEva: 7 currentPlannedEvents: 0
currentBudgetLeft: 14152 budgetUsedThisEva: 11 currentPlannedEvents: 0
currentBudgetLeft: 14196 budgetUsedThisEva: 6 currentPlannedEvents: 0
currentBudgetLeft: 14234 budgetUsedThisEva: 12 currentPlannedEvents: 0
currentBudgetLeft: 14277 budgetUsedThisEva: 7 currentPlannedEvents: 0
currentBudgetLeft: 14326 budgetUsedThisEva: 1 currentPlannedEvents: 0
currentBudgetLeft: 14372 budgetUsedThisEva: 4 currentPlannedEvents: 0
currentBudgetLeft: 14408 budgetUsedThisEva: 14 currentPlannedEvents: 0
currentBudgetLeft: 14453 budgetUsedThisEva: 5 currentPlannedEvents: 0
currentBudgetLeft: 14499 budgetUsedThisEva: 4 currentPlannedEvents: 0
currentBudgetLeft: 14536 budgetUsedThisEva: 13 currentPlannedEvents: 0
currentBudgetLeft: 14581 budgetUsedThisEva: 5 currentPlannedEvents: 0
currentBudgetLeft: 14625 budgetUsedThisEva: 6 currentPlannedEvents: 0
currentBudgetLeft: 14665 budgetUsedThisEva: 10 currentPlannedEvents: 0
currentBudgetLeft: 14709 budgetUsedThisEva: 6 currentPlannedEvents: 0
currentBudgetLeft: 14746 budgetUsedThisEva: 13 currentPlannedEvents: 0
currentBudgetLeft: 14793 budgetUsedThisEva: 3 currentPlannedEvents: 0
currentBudgetLeft: 14827 budgetUsedThisEva: 16 currentPlannedEvents: 0
currentBudgetLeft: 14869 budgetUsedThisEva: 8 currentPlannedEvents: 0
currentBudgetLeft: 14913 budgetUsedThisEva: 6 currentPlannedEvents: 0
currentBudgetLeft: 14958 budgetUsedThisEva: 5 currentPlannedEvents: 0
currentBudgetLeft: 15005 budgetUsedThisEva: 3 currentPlannedEvents: 0
currentBudgetLeft: 15050 budgetUsedThisEva: 5 currentPlannedEvents: 0
currentBudgetLeft: 15097 budgetUsedThisEva: 3 currentPlannedEvents: 0
currentBudgetLeft: 15143 budgetUsedThisEva: 4 currentPlannedEvents: 0
currentBudgetLeft: 15193 budgetUsedThisEva: 0 currentPlannedEvents: 0
currentBudgetLeft: 15243 budgetUsedThisEva: 0 currentPlannedEvents: 0
currentBudgetLeft: 15293 budgetUsedThisEva: 0 currentPlannedEvents: 0
currentBudgetLeft: 15338 budgetUsedThisEva: 5 currentPlannedEvents: 0
currentBudgetLeft: 15384 budgetUsedThisEva: 4 currentPlannedEvents: 0
currentBudgetLeft: 15432 budgetUsedThisEva: 2 currentPlannedEvents: 0
currentBudgetLeft: 15476 budgetUsedThisEva: 6 currentPlannedEvents: 0
currentBudgetLeft: 15523 budgetUsedThisEva: 3 currentPlannedEvents: 0
currentBudgetLeft: 15573 budgetUsedThisEva: 0 currentPlannedEvents: 0
currentBudgetLeft: 15616 budgetUsedThisEva: 7 currentPlannedEvents: 0
currentBudgetLeft: 15660 budgetUsedThisEva: 6 currentPlannedEvents: 0
currentBudgetLeft: 15699 budgetUsedThisEva: 11 currentPlannedEvents: 0
currentBudgetLeft: 15740 budgetUsedThisEva: 9 currentPlannedEvents: 0
currentBudgetLeft: 15783 budgetUsedThisEva: 7 currentPlannedEvents: 0
currentBudgetLeft: 15828 budgetUsedThisEva: 5 currentPlannedEvents: 0
currentBudgetLeft: 15864 budgetUsedThisEva: 14 currentPlannedEvents: 0
currentBudgetLeft: 15909 budgetUsedThisEva: 5 currentPlannedEvents: 0
currentBudgetLeft: 15953 budgetUsedThisEva: 6 currentPlannedEvents: 0
currentBudgetLeft: 16000 budgetUsedThisEva: 3 currentPlannedEvents: 0
currentBudgetLeft: 16033 budgetUsedThisEva: 17 currentPlannedEvents: 0
currentBudgetLeft: 16075 budgetUsedThisEva: 8 currentPlannedEvents: 0
currentBudgetLeft: 16123 budgetUsedThisEva: 2 currentPlannedEvents: 0
currentBudgetLeft: 16164 budgetUsedThisEva: 9 currentPlannedEvents: 0
currentBudgetLeft: 16209 budgetUsedThisEva: 5 currentPlannedEvents: 0
currentBudgetLeft: 16257 budgetUsedThisEva: 2 currentPlannedEvents: 0
currentBudgetLeft: 16294 budgetUsedThisEva: 13 currentPlannedEvents: 0
currentBudgetLeft: 16339 budgetUsedThisEva: 5 currentPlannedEvents: 0
currentBudgetLeft: 16376 budgetUsedThisEva: 13 currentPlannedEvents: 0
currentBudgetLeft: 16415 budgetUsedThisEva: 11 currentPlannedEvents: 0
currentBudgetLeft: 16450 budgetUsedThisEva: 15 currentPlannedEvents: 0
currentBudgetLeft: 16492 budgetUsedThisEva: 8 currentPlannedEvents: 0
currentBudgetLeft: 16531 budgetUsedThisEva: 11 currentPlannedEvents: 0
currentBudgetLeft: 16576 budgetUsedThisEva: 5 currentPlannedEvents: 0
currentBudgetLeft: 16624 budgetUsedThisEva: 2 currentPlannedEvents: 0
currentBudgetLeft: 16672 budgetUsedThisEva: 2 currentPlannedEvents: 0
currentBudgetLeft: 16714 budgetUsedThisEva: 8 currentPlannedEvents: 0
currentBudgetLeft: 16763 budgetUsedThisEva: 1 currentPlannedEvents: 0
currentBudgetLeft: 16802 budgetUsedThisEva: 11 currentPlannedEvents: 0
currentBudgetLeft: 16847 budgetUsedThisEva: 5 currentPlannedEvents: 0
currentBudgetLeft: 16895 budgetUsedThisEva: 2 currentPlannedEvents: 0
currentBudgetLeft: 16939 budgetUsedThisEva: 6 currentPlannedEvents: 0
currentBudgetLeft: 16984 budgetUsedThisEva: 5 currentPlannedEvents: 0
currentBudgetLeft: 17030 budgetUsedThisEva: 4 currentPlannedEvents: 0
currentBudgetLeft: 17075 budgetUsedThisEva: 5 currentPlannedEvents: 0
currentBudgetLeft: 17118 budgetUsedThisEva: 7 currentPlannedEvents: 0
currentBudgetLeft: 17166 budgetUsedThisEva: 2 currentPlannedEvents: 0
currentBudgetLeft: 17214 budgetUsedThisEva: 2 currentPlannedEvents: 0
currentBudgetLeft: 17244 budgetUsedThisEva: 20 currentPlannedEvents: 0
