0,0
0,4
0,1
0,3
0,2
45,4
51,3
71,2
71,0
71,0
76,2
79,1
89,0
99,4
118,4
148,4
149,1
167,4
186,3
197,3
219,3
220,4
222,4
243,3
250,2
276,3
278,4
278,3
281,1
311,1
313,1
345,2
362,1
365,0
371,2
378,2
379,3
381,1
393,3
403,0
405,3
413,1
417,4
432,4
454,2
456,4
466,1
471,3
485,2
488,4
510,1
512,1
526,3
532,2
548,4
551,4
553,2
565,3
579,3
588,2
590,1
591,4
599,0
605,4
606,3
609,2
622,4
632,4
633,1
650,3
654,4
704,0
715,1
724,1
736,4
744,0
747,1
751,3
768,4
769,3
776,1
782,1
788,4
791,2
803,4
844,3
846,1
881,0
911,0
912,3
932,4
944,4
953,0
954,1
955,0
969,1
972,2
976,4
984,2
988,0
1015,0
1030,3
1056,3
1061,0
1068,3
1073,2
1075,4
1094,0
1132,0
1168,1
1170,2
