Generated: class acqua.data.generator.stream.impl.StreamGeneratorMultiBasic
maxID: 999
isLinear: false
min: 200
max: 100
<http://myexample.org/S1> 103.29211714225282 
<http://myexample.org/S2> 146.31270801885103 
<http://myexample.org/S3> 112.60508958565535 
<http://myexample.org/S4> 198.4471322332488 
<http://myexample.org/S5> 123.019789673676 
<http://myexample.org/S6> 198.78012348369003 
<http://myexample.org/S7> 109.74328296504214 
<http://myexample.org/S8> 175.39788558176144 
<http://myexample.org/S9> 179.3893210903443 
<http://myexample.org/S10> 109.15437686141904 
<http://myexample.org/S11> 122.37568893390889 
<http://myexample.org/S12> 126.29899518049466 
<http://myexample.org/S13> 105.35478824818148 
<http://myexample.org/S14> 189.08137467415307 
<http://myexample.org/S15> 157.06304369416392 
<http://myexample.org/S16> 106.87117692593179 
<http://myexample.org/S17> 160.8993883255771 
<http://myexample.org/S18> 189.65045830095843 
<http://myexample.org/S19> 154.91528869310685 
<http://myexample.org/S20> 112.66972772584643 
<http://myexample.org/S21> 117.31619665094077 
<http://myexample.org/S22> 178.35946499220472 
<http://myexample.org/S23> 122.1969090392456 
<http://myexample.org/S24> 111.07358376789085 
<http://myexample.org/S25> 126.78411971599706 
<http://myexample.org/S26> 127.78869924341744 
<http://myexample.org/S27> 165.2231400952998 
<http://myexample.org/S28> 108.43452451322699 
<http://myexample.org/S29> 193.77043137606995 
<http://myexample.org/S30> 172.09040382067104 
<http://myexample.org/S31> 153.54913172517996 
<http://myexample.org/S32> 117.91694731556187 
<http://myexample.org/S33> 186.76389245596593 
<http://myexample.org/S34> 144.5292017957339 
<http://myexample.org/S35> 183.98925840819706 
<http://myexample.org/S36> 139.7499914363309 
<http://myexample.org/S37> 128.940172228499 
<http://myexample.org/S38> 169.56287554163765 
<http://myexample.org/S39> 194.6640225905371 
<http://myexample.org/S40> 164.9302274039573 
<http://myexample.org/S41> 184.58388950467742 
<http://myexample.org/S42> 146.33179748134427 
<http://myexample.org/S43> 183.0570278107026 
<http://myexample.org/S44> 165.85453937062948 
<http://myexample.org/S45> 114.43927551599708 
<http://myexample.org/S46> 126.92916656095115 
<http://myexample.org/S47> 114.97478905050382 
<http://myexample.org/S48> 142.92917412074365 
<http://myexample.org/S49> 107.63411117087122 
<http://myexample.org/S50> 162.45319470473038 
<http://myexample.org/S51> 172.33719080655567 
<http://myexample.org/S52> 154.89246102056404 
<http://myexample.org/S53> 110.41926276326906 
<http://myexample.org/S54> 162.5961980964625 
<http://myexample.org/S55> 176.88660982115977 
<http://myexample.org/S56> 172.4049575525306 
<http://myexample.org/S57> 162.68875084574555 
<http://myexample.org/S58> 190.4045470786802 
<http://myexample.org/S59> 144.18890597163363 
<http://myexample.org/S60> 159.40230394353722 
<http://myexample.org/S61> 122.09300960469716 
<http://myexample.org/S62> 192.84726410117943 
<http://myexample.org/S63> 167.709556126165 
<http://myexample.org/S64> 104.77243670004034 
<http://myexample.org/S65> 102.53058729405598 
<http://myexample.org/S66> 149.9600160946622 
<http://myexample.org/S67> 106.28345687510901 
<http://myexample.org/S68> 198.11017404646492 
<http://myexample.org/S69> 178.9012464737873 
<http://myexample.org/S70> 110.58510684757827 
<http://myexample.org/S71> 149.95700425213371 
<http://myexample.org/S72> 167.61867298692175 
<http://myexample.org/S73> 113.22602095394289 
<http://myexample.org/S74> 171.10701523806637 
<http://myexample.org/S75> 168.9662579720573 
<http://myexample.org/S76> 175.66860422318177 
<http://myexample.org/S77> 138.58752182292636 
<http://myexample.org/S78> 145.0869511509259 
<http://myexample.org/S79> 108.52513849789821 
<http://myexample.org/S80> 198.09230161008176 
<http://myexample.org/S81> 196.816353756353 
<http://myexample.org/S82> 166.32870530342126 
<http://myexample.org/S83> 178.13276638473906 
<http://myexample.org/S84> 196.98160082177975 
<http://myexample.org/S85> 163.4472238452906 
<http://myexample.org/S86> 165.6621409337332 
<http://myexample.org/S87> 198.26918714876356 
<http://myexample.org/S88> 133.57440564437513 
<http://myexample.org/S89> 109.19096450151335 
<http://myexample.org/S90> 162.6094019343081 
<http://myexample.org/S91> 109.63394760532819 
<http://myexample.org/S92> 157.75650186511422 
<http://myexample.org/S93> 141.01630770722082 
<http://myexample.org/S94> 117.10297154204274 
<http://myexample.org/S95> 120.4920195782213 
<http://myexample.org/S96> 153.77150689458418 
<http://myexample.org/S97> 137.90799345942605 
<http://myexample.org/S98> 193.55350761139076 
<http://myexample.org/S99> 166.22690329225077 
<http://myexample.org/S100> 117.9232500278029 
<http://myexample.org/S101> 146.46533990912408 
<http://myexample.org/S102> 199.81936971131017 
<http://myexample.org/S103> 181.86070314979696 
<http://myexample.org/S104> 193.37129978107717 
<http://myexample.org/S105> 129.72815768446225 
<http://myexample.org/S106> 177.0085955856697 
<http://myexample.org/S107> 143.08628609610668 
<http://myexample.org/S108> 189.5617463304478 
<http://myexample.org/S109> 168.96449113699862 
<http://myexample.org/S110> 132.54803917949857 
<http://myexample.org/S111> 114.26668899969337 
<http://myexample.org/S112> 169.40175938841267 
<http://myexample.org/S113> 102.6273278473586 
<http://myexample.org/S114> 128.5832617056692 
<http://myexample.org/S115> 152.89213427425486 
<http://myexample.org/S116> 195.97786296748995 
<http://myexample.org/S117> 149.28510933920867 
<http://myexample.org/S118> 160.52667988671948 
<http://myexample.org/S119> 159.1451992958723 
<http://myexample.org/S120> 192.43423282694334 
<http://myexample.org/S121> 102.05349030986885 
<http://myexample.org/S122> 186.45038430165326 
<http://myexample.org/S123> 126.50974432451167 
<http://myexample.org/S124> 183.56878048436943 
<http://myexample.org/S125> 100.90347682345792 
<http://myexample.org/S126> 197.0239397372328 
<http://myexample.org/S127> 144.76949623010705 
<http://myexample.org/S128> 155.7711621730216 
<http://myexample.org/S129> 186.1937215200839 
<http://myexample.org/S130> 147.82640286017227 
<http://myexample.org/S131> 130.27721365198474 
<http://myexample.org/S132> 193.11824932708345 
<http://myexample.org/S133> 111.87240322515632 
<http://myexample.org/S134> 111.11568078610816 
<http://myexample.org/S135> 110.03560310347495 
<http://myexample.org/S136> 121.75904739280259 
<http://myexample.org/S137> 150.01679025803367 
<http://myexample.org/S138> 142.51725788721086 
<http://myexample.org/S139> 165.9162692643181 
<http://myexample.org/S140> 122.16240149173841 
<http://myexample.org/S141> 149.72624249590913 
<http://myexample.org/S142> 199.59824192315872 
<http://myexample.org/S143> 153.25314658595073 
<http://myexample.org/S144> 149.36726994809885 
<http://myexample.org/S145> 122.85702449533966 
<http://myexample.org/S146> 193.9215885371355 
<http://myexample.org/S147> 144.08201972477724 
<http://myexample.org/S148> 135.06675327538161 
<http://myexample.org/S149> 116.6850222711681 
<http://myexample.org/S150> 105.92924489872169 
<http://myexample.org/S151> 109.45791360737013 
<http://myexample.org/S152> 132.17342497735928 
<http://myexample.org/S153> 199.30506361393742 
<http://myexample.org/S154> 142.88185648274418 
<http://myexample.org/S155> 147.56723518257886 
<http://myexample.org/S156> 102.45501516995392 
<http://myexample.org/S157> 127.42322533699996 
<http://myexample.org/S158> 174.08665780139324 
<http://myexample.org/S159> 184.76178227466994 
<http://myexample.org/S160> 140.89576263365896 
<http://myexample.org/S161> 188.17112157176695 
<http://myexample.org/S162> 134.7739635463529 
<http://myexample.org/S163> 125.17681580669405 
<http://myexample.org/S164> 176.63032233350106 
<http://myexample.org/S165> 106.66892273088267 
<http://myexample.org/S166> 150.2366650674661 
<http://myexample.org/S167> 101.25561207703463 
<http://myexample.org/S168> 189.61336784632095 
<http://myexample.org/S169> 189.28637356481198 
<http://myexample.org/S170> 195.22604125297556 
<http://myexample.org/S171> 182.288022895149 
<http://myexample.org/S172> 134.62953967844533 
<http://myexample.org/S173> 128.8988555659555 
<http://myexample.org/S174> 170.10101566386783 
<http://myexample.org/S175> 130.9807415979856 
<http://myexample.org/S176> 169.81473943775973 
<http://myexample.org/S177> 132.90812381088222 
<http://myexample.org/S178> 144.8570208037259 
<http://myexample.org/S179> 159.11214714215518 
<http://myexample.org/S180> 145.55122744390786 
<http://myexample.org/S181> 147.39505708021437 
<http://myexample.org/S182> 194.9144484432386 
<http://myexample.org/S183> 122.48471997423592 
<http://myexample.org/S184> 121.41531665083895 
<http://myexample.org/S185> 141.49433347690714 
<http://myexample.org/S186> 128.42558041916854 
<http://myexample.org/S187> 112.6732129220091 
<http://myexample.org/S188> 143.79793097763746 
<http://myexample.org/S189> 184.9287155631494 
<http://myexample.org/S190> 183.8628491766109 
<http://myexample.org/S191> 148.47689275319863 
<http://myexample.org/S192> 134.88466393722234 
<http://myexample.org/S193> 198.61317755100634 
<http://myexample.org/S194> 158.78013293998723 
<http://myexample.org/S195> 143.51934464331976 
<http://myexample.org/S196> 114.8733902802912 
<http://myexample.org/S197> 183.33682868312226 
<http://myexample.org/S198> 115.89271963587808 
<http://myexample.org/S199> 128.09945870321675 
<http://myexample.org/S200> 103.62388366869537 
<http://myexample.org/S201> 134.7532283075563 
<http://myexample.org/S202> 101.0004677710323 
<http://myexample.org/S203> 133.1824201095358 
<http://myexample.org/S204> 125.37531739140363 
<http://myexample.org/S205> 134.25731634036777 
<http://myexample.org/S206> 198.78263036785032 
<http://myexample.org/S207> 102.32963089438996 
<http://myexample.org/S208> 170.73389982165224 
<http://myexample.org/S209> 164.79989616855744 
<http://myexample.org/S210> 147.12165864710897 
<http://myexample.org/S211> 183.40166301636265 
<http://myexample.org/S212> 153.82434387531185 
<http://myexample.org/S213> 138.2881999383881 
<http://myexample.org/S214> 128.36725764865173 
<http://myexample.org/S215> 166.02854021074978 
<http://myexample.org/S216> 139.31523072549982 
<http://myexample.org/S217> 136.94376509759917 
<http://myexample.org/S218> 156.83086993302064 
<http://myexample.org/S219> 173.1267391723391 
<http://myexample.org/S220> 103.9697782907353 
<http://myexample.org/S221> 164.83649359193987 
<http://myexample.org/S222> 185.80461889078734 
<http://myexample.org/S223> 185.1524751235812 
<http://myexample.org/S224> 140.43989318011546 
<http://myexample.org/S225> 177.78642427246163 
<http://myexample.org/S226> 164.52770646384067 
<http://myexample.org/S227> 174.31605104147246 
<http://myexample.org/S228> 107.21280942988982 
<http://myexample.org/S229> 109.9223935576995 
<http://myexample.org/S230> 185.7771628709874 
<http://myexample.org/S231> 152.642101102049 
<http://myexample.org/S232> 177.9360418770065 
<http://myexample.org/S233> 143.409444348523 
<http://myexample.org/S234> 178.1386867388056 
<http://myexample.org/S235> 192.54581233053753 
<http://myexample.org/S236> 145.78773784136402 
<http://myexample.org/S237> 174.2044419531868 
<http://myexample.org/S238> 113.51732085551977 
<http://myexample.org/S239> 161.50530191970043 
<http://myexample.org/S240> 194.12597674355422 
<http://myexample.org/S241> 111.1721127249986 
<http://myexample.org/S242> 120.07651800241523 
<http://myexample.org/S243> 123.44553090977134 
<http://myexample.org/S244> 153.3419153810637 
<http://myexample.org/S245> 108.49123987416142 
<http://myexample.org/S246> 113.54813699311632 
<http://myexample.org/S247> 198.60922886353205 
<http://myexample.org/S248> 125.65814971213803 
<http://myexample.org/S249> 172.00355153926384 
<http://myexample.org/S250> 185.73475079095823 
<http://myexample.org/S251> 140.97554511950318 
<http://myexample.org/S252> 174.55498052085818 
<http://myexample.org/S253> 199.00537032985346 
<http://myexample.org/S254> 118.02961161935244 
<http://myexample.org/S255> 187.69720829983103 
<http://myexample.org/S256> 143.5737893774193 
<http://myexample.org/S257> 107.95484248704273 
<http://myexample.org/S258> 119.9084713614818 
<http://myexample.org/S259> 158.5622141843047 
<http://myexample.org/S260> 190.4380222205765 
<http://myexample.org/S261> 189.66514261408696 
<http://myexample.org/S262> 127.60139744930973 
<http://myexample.org/S263> 135.14614054213632 
<http://myexample.org/S264> 196.74876982817466 
<http://myexample.org/S265> 164.77678889923607 
<http://myexample.org/S266> 136.53163863868787 
<http://myexample.org/S267> 129.1064159828378 
<http://myexample.org/S268> 140.9533055415298 
<http://myexample.org/S269> 163.64977606334892 
<http://myexample.org/S270> 182.6124398340506 
<http://myexample.org/S271> 156.97998310605956 
<http://myexample.org/S272> 102.85134137189975 
<http://myexample.org/S273> 154.28894587869374 
<http://myexample.org/S274> 132.12170249009057 
<http://myexample.org/S275> 174.8809417191137 
<http://myexample.org/S276> 101.59518063133598 
<http://myexample.org/S277> 131.51366685735843 
<http://myexample.org/S278> 187.62821372372298 
<http://myexample.org/S279> 190.6549773733434 
<http://myexample.org/S280> 155.95636657490857 
<http://myexample.org/S281> 146.30551540009287 
<http://myexample.org/S282> 168.32211369020808 
<http://myexample.org/S283> 163.33244297851593 
<http://myexample.org/S284> 195.57278814165545 
<http://myexample.org/S285> 198.11534612743435 
<http://myexample.org/S286> 177.1061805503196 
<http://myexample.org/S287> 120.13221845541918 
<http://myexample.org/S288> 144.9566696503952 
<http://myexample.org/S289> 134.8837751741867 
<http://myexample.org/S290> 123.93337206987813 
<http://myexample.org/S291> 169.8035423209841 
<http://myexample.org/S292> 148.23521474611147 
<http://myexample.org/S293> 105.62676036222902 
<http://myexample.org/S294> 135.1300647737883 
<http://myexample.org/S295> 167.75321759308702 
<http://myexample.org/S296> 101.91213740177594 
<http://myexample.org/S297> 188.66062104325076 
<http://myexample.org/S298> 141.82320458501897 
<http://myexample.org/S299> 193.1907412880269 
<http://myexample.org/S300> 115.37968276273884 
<http://myexample.org/S301> 174.88849504211294 
<http://myexample.org/S302> 107.09361577282696 
<http://myexample.org/S303> 131.43404570670967 
<http://myexample.org/S304> 124.47716708779186 
<http://myexample.org/S305> 120.04288202323681 
<http://myexample.org/S306> 121.10653991749231 
<http://myexample.org/S307> 115.55372430997504 
<http://myexample.org/S308> 142.08343872410512 
<http://myexample.org/S309> 192.3765851577657 
<http://myexample.org/S310> 166.2244317272598 
<http://myexample.org/S311> 170.69372755011076 
<http://myexample.org/S312> 141.54713741465116 
<http://myexample.org/S313> 133.0170197969575 
<http://myexample.org/S314> 129.985876557797 
<http://myexample.org/S315> 121.69173187821903 
<http://myexample.org/S316> 133.69993756543602 
<http://myexample.org/S317> 115.04650597710935 
<http://myexample.org/S318> 122.83852383931557 
<http://myexample.org/S319> 170.03248029797453 
<http://myexample.org/S320> 116.26447939523936 
<http://myexample.org/S321> 134.34382930550225 
<http://myexample.org/S322> 139.64267000405624 
<http://myexample.org/S323> 119.70257986215933 
<http://myexample.org/S324> 145.65997460790143 
<http://myexample.org/S325> 190.31999442166196 
<http://myexample.org/S326> 189.2161982857625 
<http://myexample.org/S327> 133.17542355162894 
<http://myexample.org/S328> 105.52500614434167 
<http://myexample.org/S329> 117.90377980935648 
<http://myexample.org/S330> 104.57037104475603 
<http://myexample.org/S331> 128.53997225858137 
<http://myexample.org/S332> 123.71834636117448 
<http://myexample.org/S333> 113.48032049348026 
<http://myexample.org/S334> 137.98991264153676 
<http://myexample.org/S335> 186.69741196248003 
<http://myexample.org/S336> 120.12508654554408 
<http://myexample.org/S337> 156.95862424229472 
<http://myexample.org/S338> 139.73975640591698 
<http://myexample.org/S339> 123.58473715230497 
<http://myexample.org/S340> 151.2867228698011 
<http://myexample.org/S341> 169.7416166454591 
<http://myexample.org/S342> 116.93470428338688 
<http://myexample.org/S343> 196.54457200943716 
<http://myexample.org/S344> 154.69034197532517 
<http://myexample.org/S345> 164.09486780074644 
<http://myexample.org/S346> 169.98713381126709 
<http://myexample.org/S347> 156.24559964820872 
<http://myexample.org/S348> 185.49331039231788 
<http://myexample.org/S349> 133.2579284945822 
<http://myexample.org/S350> 108.05185869004202 
<http://myexample.org/S351> 125.96821424616465 
<http://myexample.org/S352> 181.52645176506329 
<http://myexample.org/S353> 103.61477947105948 
<http://myexample.org/S354> 152.01608881312995 
<http://myexample.org/S355> 188.60511186772328 
<http://myexample.org/S356> 188.60994317922987 
<http://myexample.org/S357> 120.3375686938603 
<http://myexample.org/S358> 143.83638609016174 
<http://myexample.org/S359> 188.38670627979036 
<http://myexample.org/S360> 127.53268772688426 
<http://myexample.org/S361> 166.14051434055972 
<http://myexample.org/S362> 194.4033844998596 
<http://myexample.org/S363> 109.1264021986685 
<http://myexample.org/S364> 186.48724199837358 
<http://myexample.org/S365> 119.12841724598309 
<http://myexample.org/S366> 118.61898555044642 
<http://myexample.org/S367> 173.69096513091932 
<http://myexample.org/S368> 178.31884612551903 
<http://myexample.org/S369> 140.19699984745174 
<http://myexample.org/S370> 125.99961959771865 
<http://myexample.org/S371> 120.43629758136109 
<http://myexample.org/S372> 110.63845358686054 
<http://myexample.org/S373> 143.03980893400794 
<http://myexample.org/S374> 157.87307762115313 
<http://myexample.org/S375> 151.50916690256966 
<http://myexample.org/S376> 178.66614303285792 
<http://myexample.org/S377> 140.53921565527818 
<http://myexample.org/S378> 188.1153134425004 
<http://myexample.org/S379> 115.2005309387571 
<http://myexample.org/S380> 105.61258260109409 
<http://myexample.org/S381> 180.16659974310562 
<http://myexample.org/S382> 133.37756302471178 
<http://myexample.org/S383> 179.94631378142816 
<http://myexample.org/S384> 123.47275858370644 
<http://myexample.org/S385> 177.98948230902127 
<http://myexample.org/S386> 150.88298087048287 
<http://myexample.org/S387> 181.10657784780187 
<http://myexample.org/S388> 108.29747569259723 
<http://myexample.org/S389> 135.9810820059505 
<http://myexample.org/S390> 137.12591607183515 
<http://myexample.org/S391> 173.31427492549363 
<http://myexample.org/S392> 158.3246042650677 
<http://myexample.org/S393> 180.55036377164805 
<http://myexample.org/S394> 179.18589605139593 
<http://myexample.org/S395> 100.96981444318409 
<http://myexample.org/S396> 130.7934461843438 
<http://myexample.org/S397> 191.55831257862712 
<http://myexample.org/S398> 151.87223229285644 
<http://myexample.org/S399> 107.36794945714398 
<http://myexample.org/S400> 133.83196373972808 
<http://myexample.org/S401> 100.5588623281187 
<http://myexample.org/S402> 198.5441030975821 
<http://myexample.org/S403> 138.97856672769785 
<http://myexample.org/S404> 103.49808481922784 
<http://myexample.org/S405> 124.60053644562757 
<http://myexample.org/S406> 181.2048784567645 
<http://myexample.org/S407> 165.5631286276188 
<http://myexample.org/S408> 182.87263274547672 
<http://myexample.org/S409> 167.64747742804553 
<http://myexample.org/S410> 136.34833745430493 
<http://myexample.org/S411> 129.09371571326216 
<http://myexample.org/S412> 160.0428875236728 
<http://myexample.org/S413> 165.5263065686564 
<http://myexample.org/S414> 127.0383473293364 
<http://myexample.org/S415> 154.85172846875236 
<http://myexample.org/S416> 114.88217951347136 
<http://myexample.org/S417> 172.27777193629447 
<http://myexample.org/S418> 138.8324777452031 
<http://myexample.org/S419> 106.6184680548786 
<http://myexample.org/S420> 170.72229573912546 
<http://myexample.org/S421> 185.88991606765074 
<http://myexample.org/S422> 127.41394373615222 
<http://myexample.org/S423> 144.53001097614236 
<http://myexample.org/S424> 146.33193858109456 
<http://myexample.org/S425> 189.61208665311534 
<http://myexample.org/S426> 189.17513619849035 
<http://myexample.org/S427> 148.95390370245386 
<http://myexample.org/S428> 156.05581081181677 
<http://myexample.org/S429> 141.39678452692505 
<http://myexample.org/S430> 192.49995420078233 
<http://myexample.org/S431> 106.65538243814514 
<http://myexample.org/S432> 111.53538551984404 
<http://myexample.org/S433> 178.48901006524824 
<http://myexample.org/S434> 177.12103489504761 
<http://myexample.org/S435> 116.5559646220071 
<http://myexample.org/S436> 137.12377128801165 
<http://myexample.org/S437> 116.78041525990615 
<http://myexample.org/S438> 101.68187829515882 
<http://myexample.org/S439> 161.5474458144685 
<http://myexample.org/S440> 122.92349874807942 
<http://myexample.org/S441> 115.26822556314076 
<http://myexample.org/S442> 195.51277819918135 
<http://myexample.org/S443> 110.10945513299481 
<http://myexample.org/S444> 104.3174687612335 
<http://myexample.org/S445> 144.80654967914936 
<http://myexample.org/S446> 149.63339259887192 
<http://myexample.org/S447> 156.88888907323127 
<http://myexample.org/S448> 174.92974179306557 
<http://myexample.org/S449> 147.3103736331033 
<http://myexample.org/S450> 164.12364849662714 
<http://myexample.org/S451> 184.93473355949274 
<http://myexample.org/S452> 111.14415461083996 
<http://myexample.org/S453> 196.67014231062348 
<http://myexample.org/S454> 154.25864403085467 
<http://myexample.org/S455> 133.94186329346047 
<http://myexample.org/S456> 110.62529377881847 
<http://myexample.org/S457> 175.85755349471253 
<http://myexample.org/S458> 106.18205571713953 
<http://myexample.org/S459> 188.64267691783857 
<http://myexample.org/S460> 124.72763190488791 
<http://myexample.org/S461> 166.0507848341295 
<http://myexample.org/S462> 164.3965099225844 
<http://myexample.org/S463> 159.3954525584627 
<http://myexample.org/S464> 195.2451413876267 
<http://myexample.org/S465> 103.08007561525699 
<http://myexample.org/S466> 127.97826404095815 
<http://myexample.org/S467> 113.05357673179064 
<http://myexample.org/S468> 189.64502280462477 
<http://myexample.org/S469> 194.09220492401528 
<http://myexample.org/S470> 130.17744171283206 
<http://myexample.org/S471> 126.35989019209869 
<http://myexample.org/S472> 165.7456727377408 
<http://myexample.org/S473> 103.05510372763868 
<http://myexample.org/S474> 176.94400913015429 
<http://myexample.org/S475> 176.39556334402627 
<http://myexample.org/S476> 186.7403379432606 
<http://myexample.org/S477> 107.57145411594786 
<http://myexample.org/S478> 123.9235229275645 
<http://myexample.org/S479> 153.0231032468305 
<http://myexample.org/S480> 150.5343871701624 
<http://myexample.org/S481> 101.44281044951133 
<http://myexample.org/S482> 178.59565536118077 
<http://myexample.org/S483> 176.7981952083511 
<http://myexample.org/S484> 193.55548058466786 
<http://myexample.org/S485> 167.52343059047308 
<http://myexample.org/S486> 124.48236503055408 
<http://myexample.org/S487> 132.48526885283405 
<http://myexample.org/S488> 178.5123472309215 
<http://myexample.org/S489> 173.6256560728051 
<http://myexample.org/S490> 177.73149075341024 
<http://myexample.org/S491> 183.09685896021645 
<http://myexample.org/S492> 178.01930234890835 
<http://myexample.org/S493> 150.58633396278898 
<http://myexample.org/S494> 102.88547553359088 
<http://myexample.org/S495> 112.28693676989843 
<http://myexample.org/S496> 121.56999950776122 
<http://myexample.org/S497> 196.0764406984505 
<http://myexample.org/S498> 134.27380534469387 
<http://myexample.org/S499> 153.96356385079443 
<http://myexample.org/S500> 182.035355976221 
<http://myexample.org/S501> 110.33370914533353 
<http://myexample.org/S502> 172.2216914044712 
<http://myexample.org/S503> 107.14640994704368 
<http://myexample.org/S504> 139.67699582302504 
<http://myexample.org/S505> 110.72073257992842 
<http://myexample.org/S506> 149.14636486482914 
<http://myexample.org/S507> 101.37977708726555 
<http://myexample.org/S508> 176.60892987887382 
<http://myexample.org/S509> 190.85866519674224 
<http://myexample.org/S510> 189.61635164973495 
<http://myexample.org/S511> 173.4219635086099 
<http://myexample.org/S512> 122.70662877567821 
<http://myexample.org/S513> 187.05930273389185 
<http://myexample.org/S514> 120.57791130186524 
<http://myexample.org/S515> 139.46695146485212 
<http://myexample.org/S516> 195.15404199001023 
<http://myexample.org/S517> 189.87595230080817 
<http://myexample.org/S518> 123.2067894443388 
<http://myexample.org/S519> 198.81455001332452 
<http://myexample.org/S520> 148.1355108990847 
<http://myexample.org/S521> 191.81621562014357 
<http://myexample.org/S522> 156.2223163682383 
<http://myexample.org/S523> 184.6903046614591 
<http://myexample.org/S524> 176.62096350278938 
<http://myexample.org/S525> 193.60743436022622 
<http://myexample.org/S526> 122.0047916082048 
<http://myexample.org/S527> 185.8265974821324 
<http://myexample.org/S528> 198.75912409345813 
<http://myexample.org/S529> 100.87814708962918 
<http://myexample.org/S530> 191.48600828579373 
<http://myexample.org/S531> 198.45155596969414 
<http://myexample.org/S532> 175.0849507540095 
<http://myexample.org/S533> 130.7166902676442 
<http://myexample.org/S534> 151.53665572072245 
<http://myexample.org/S535> 132.49255027646956 
<http://myexample.org/S536> 109.56386189408569 
<http://myexample.org/S537> 113.29060845999341 
<http://myexample.org/S538> 189.45329715162993 
<http://myexample.org/S539> 188.08616568102553 
<http://myexample.org/S540> 117.4367565905716 
<http://myexample.org/S541> 117.55826867281526 
<http://myexample.org/S542> 183.15144275425345 
<http://myexample.org/S543> 138.8967555974753 
<http://myexample.org/S544> 137.89619942988196 
<http://myexample.org/S545> 152.07668591532055 
<http://myexample.org/S546> 122.8002319698077 
<http://myexample.org/S547> 107.28077172097812 
<http://myexample.org/S548> 115.81560021803057 
<http://myexample.org/S549> 192.00728684006515 
<http://myexample.org/S550> 149.88808308486477 
<http://myexample.org/S551> 192.99431961079142 
<http://myexample.org/S552> 176.06958457610725 
<http://myexample.org/S553> 161.64388989804644 
<http://myexample.org/S554> 163.08759896464045 
<http://myexample.org/S555> 121.92639482715904 
<http://myexample.org/S556> 166.4251661245329 
<http://myexample.org/S557> 158.13497068550043 
<http://myexample.org/S558> 106.79193152616595 
<http://myexample.org/S559> 114.25059184679711 
<http://myexample.org/S560> 150.54973507469788 
<http://myexample.org/S561> 136.54479298006174 
<http://myexample.org/S562> 127.82369798589944 
<http://myexample.org/S563> 132.4230733414002 
<http://myexample.org/S564> 191.37331331456247 
<http://myexample.org/S565> 188.9957751791652 
<http://myexample.org/S566> 158.57143147965002 
<http://myexample.org/S567> 158.6148504719228 
<http://myexample.org/S568> 176.8588896775006 
<http://myexample.org/S569> 141.3570248039621 
<http://myexample.org/S570> 160.68753269868196 
<http://myexample.org/S571> 168.45153243542163 
<http://myexample.org/S572> 105.17607066119996 
<http://myexample.org/S573> 159.79167698616573 
<http://myexample.org/S574> 142.48546522096257 
<http://myexample.org/S575> 113.3438597468788 
<http://myexample.org/S576> 164.33971224196245 
<http://myexample.org/S577> 106.4483018364074 
<http://myexample.org/S578> 145.30299995926987 
<http://myexample.org/S579> 197.2275227642712 
<http://myexample.org/S580> 112.56656608370453 
<http://myexample.org/S581> 108.67932994097684 
<http://myexample.org/S582> 179.35205861113678 
<http://myexample.org/S583> 135.1908938741248 
<http://myexample.org/S584> 189.9194109906708 
<http://myexample.org/S585> 109.39207617076426 
<http://myexample.org/S586> 177.95475802815193 
<http://myexample.org/S587> 111.25445348351225 
<http://myexample.org/S588> 169.24952123847794 
<http://myexample.org/S589> 147.48562381994375 
<http://myexample.org/S590> 130.56905077983203 
<http://myexample.org/S591> 110.47588141408102 
<http://myexample.org/S592> 185.01475472795988 
<http://myexample.org/S593> 176.7994475933814 
<http://myexample.org/S594> 149.63634635555127 
<http://myexample.org/S595> 186.58992258691745 
<http://myexample.org/S596> 162.24192739272308 
<http://myexample.org/S597> 169.59735414252765 
<http://myexample.org/S598> 124.03733970014301 
<http://myexample.org/S599> 140.55225329653695 
<http://myexample.org/S600> 104.71856387119783 
<http://myexample.org/S601> 166.3329611486335 
<http://myexample.org/S602> 112.82122243452702 
<http://myexample.org/S603> 127.64181643929929 
<http://myexample.org/S604> 191.44051256217347 
<http://myexample.org/S605> 127.29055762241255 
<http://myexample.org/S606> 136.87734772962963 
<http://myexample.org/S607> 181.18616574309286 
<http://myexample.org/S608> 173.40832009200892 
<http://myexample.org/S609> 113.66791728074742 
<http://myexample.org/S610> 133.34731304390814 
<http://myexample.org/S611> 139.50955985455118 
<http://myexample.org/S612> 159.0566580505149 
<http://myexample.org/S613> 175.76519790222196 
<http://myexample.org/S614> 147.82933368335415 
<http://myexample.org/S615> 189.36369677330967 
<http://myexample.org/S616> 125.91753575498103 
<http://myexample.org/S617> 154.16681604248848 
<http://myexample.org/S618> 152.8057237694449 
<http://myexample.org/S619> 193.88614314498756 
<http://myexample.org/S620> 198.5593677663536 
<http://myexample.org/S621> 106.150765878717 
<http://myexample.org/S622> 197.22814261445342 
<http://myexample.org/S623> 156.04163322116415 
<http://myexample.org/S624> 188.4104800104544 
<http://myexample.org/S625> 154.03254829261738 
<http://myexample.org/S626> 111.82421977165467 
<http://myexample.org/S627> 179.5366050946633 
<http://myexample.org/S628> 199.76690896727456 
<http://myexample.org/S629> 114.74849489844429 
<http://myexample.org/S630> 117.44307425727078 
<http://myexample.org/S631> 128.35751026441972 
<http://myexample.org/S632> 168.10090049376794 
<http://myexample.org/S633> 110.70599784050516 
<http://myexample.org/S634> 109.63610753264476 
<http://myexample.org/S635> 153.36851260108418 
<http://myexample.org/S636> 111.72777325538613 
<http://myexample.org/S637> 180.77572607344095 
<http://myexample.org/S638> 121.6734382117761 
<http://myexample.org/S639> 149.81447345485256 
<http://myexample.org/S640> 145.95536654482365 
<http://myexample.org/S641> 107.27362499150715 
<http://myexample.org/S642> 100.325143216376 
<http://myexample.org/S643> 133.11013009409152 
<http://myexample.org/S644> 130.0315578474432 
<http://myexample.org/S645> 149.87813517283558 
<http://myexample.org/S646> 163.9904730990081 
<http://myexample.org/S647> 171.95665728943942 
<http://myexample.org/S648> 191.5218572541256 
<http://myexample.org/S649> 130.65070513723808 
<http://myexample.org/S650> 151.13708619877895 
<http://myexample.org/S651> 197.61188578649933 
<http://myexample.org/S652> 100.19041370877075 
<http://myexample.org/S653> 145.6753809268687 
<http://myexample.org/S654> 108.51619404097698 
<http://myexample.org/S655> 116.05062870376335 
<http://myexample.org/S656> 144.0242165238643 
<http://myexample.org/S657> 188.30582041149762 
<http://myexample.org/S658> 113.24853606817288 
<http://myexample.org/S659> 185.7867302626628 
<http://myexample.org/S660> 193.7316657894866 
<http://myexample.org/S661> 156.60584671109456 
<http://myexample.org/S662> 170.62986581132878 
<http://myexample.org/S663> 188.28858580245333 
<http://myexample.org/S664> 128.86310068537696 
<http://myexample.org/S665> 183.29222664698256 
<http://myexample.org/S666> 180.38367090734206 
<http://myexample.org/S667> 110.20506225983883 
<http://myexample.org/S668> 138.64224971707085 
<http://myexample.org/S669> 170.33605258362275 
<http://myexample.org/S670> 118.09265930468798 
<http://myexample.org/S671> 177.02889820587512 
<http://myexample.org/S672> 103.6640460769603 
<http://myexample.org/S673> 132.35175102300474 
<http://myexample.org/S674> 135.6694946103389 
<http://myexample.org/S675> 126.35979852206609 
<http://myexample.org/S676> 110.80556347825818 
<http://myexample.org/S677> 153.00041932891665 
<http://myexample.org/S678> 144.9811625939468 
<http://myexample.org/S679> 185.58963238923184 
<http://myexample.org/S680> 153.01329478935435 
<http://myexample.org/S681> 136.85680613150708 
<http://myexample.org/S682> 112.12025500379349 
<http://myexample.org/S683> 123.61724991543844 
<http://myexample.org/S684> 118.07140303121695 
<http://myexample.org/S685> 195.5369577557168 
<http://myexample.org/S686> 156.32035265219162 
<http://myexample.org/S687> 179.11066999997445 
<http://myexample.org/S688> 176.0219560639835 
<http://myexample.org/S689> 141.35616765595773 
<http://myexample.org/S690> 117.14162636969667 
<http://myexample.org/S691> 128.86940974176343 
<http://myexample.org/S692> 133.5995528138427 
<http://myexample.org/S693> 174.3845418058061 
<http://myexample.org/S694> 126.3066416390648 
<http://myexample.org/S695> 149.00007221543635 
<http://myexample.org/S696> 135.8592048812079 
<http://myexample.org/S697> 139.49014832907164 
<http://myexample.org/S698> 196.4452920624036 
<http://myexample.org/S699> 138.90327099093844 
<http://myexample.org/S700> 160.11769487372342 
<http://myexample.org/S701> 198.807372248798 
<http://myexample.org/S702> 118.01165970760664 
<http://myexample.org/S703> 123.48027801002456 
<http://myexample.org/S704> 165.39505871582708 
<http://myexample.org/S705> 112.04076097470266 
<http://myexample.org/S706> 137.76455881478608 
<http://myexample.org/S707> 122.50283285827385 
<http://myexample.org/S708> 131.73424856379788 
<http://myexample.org/S709> 142.1122679129806 
<http://myexample.org/S710> 177.457354703763 
<http://myexample.org/S711> 177.74979311917127 
<http://myexample.org/S712> 148.09342878168255 
<http://myexample.org/S713> 106.88253533735127 
<http://myexample.org/S714> 139.76161830971327 
<http://myexample.org/S715> 158.2993767592513 
<http://myexample.org/S716> 184.94677100165134 
<http://myexample.org/S717> 179.02440240326882 
<http://myexample.org/S718> 139.9530625189646 
<http://myexample.org/S719> 122.2759821562949 
<http://myexample.org/S720> 118.29602474056175 
<http://myexample.org/S721> 195.59959119038535 
<http://myexample.org/S722> 196.5170794161499 
<http://myexample.org/S723> 199.38566993277246 
<http://myexample.org/S724> 155.48652800129622 
<http://myexample.org/S725> 176.48710910019435 
<http://myexample.org/S726> 111.58516944615701 
<http://myexample.org/S727> 172.7345826720131 
<http://myexample.org/S728> 150.03775778824428 
<http://myexample.org/S729> 166.53458101741393 
<http://myexample.org/S730> 172.9924023122714 
<http://myexample.org/S731> 180.70971039299866 
<http://myexample.org/S732> 182.63988579194898 
<http://myexample.org/S733> 110.15139101743712 
<http://myexample.org/S734> 113.74997932149377 
<http://myexample.org/S735> 130.11157968888912 
<http://myexample.org/S736> 128.53426356120247 
<http://myexample.org/S737> 139.0351621273815 
<http://myexample.org/S738> 171.85587205098778 
<http://myexample.org/S739> 110.26362140194679 
<http://myexample.org/S740> 127.68711907654829 
<http://myexample.org/S741> 103.82074862607304 
<http://myexample.org/S742> 103.62042542852362 
<http://myexample.org/S743> 124.48305279543135 
<http://myexample.org/S744> 123.4821711503452 
<http://myexample.org/S745> 108.66359287137111 
<http://myexample.org/S746> 117.06269734173435 
<http://myexample.org/S747> 110.08336957264491 
<http://myexample.org/S748> 138.0992939401641 
<http://myexample.org/S749> 114.11694657682293 
<http://myexample.org/S750> 108.43724069214188 
<http://myexample.org/S751> 100.98862911722081 
<http://myexample.org/S752> 108.31273146967877 
<http://myexample.org/S753> 158.1350897248843 
<http://myexample.org/S754> 104.57991159199801 
<http://myexample.org/S755> 198.07486485612293 
<http://myexample.org/S756> 114.13380849505563 
<http://myexample.org/S757> 107.63237638690241 
<http://myexample.org/S758> 136.51522390396286 
<http://myexample.org/S759> 151.51417138522208 
<http://myexample.org/S760> 194.53945138284115 
<http://myexample.org/S761> 193.75057492131478 
<http://myexample.org/S762> 195.64664931645007 
<http://myexample.org/S763> 126.68212024733208 
<http://myexample.org/S764> 159.4692683989795 
<http://myexample.org/S765> 102.83459206433233 
<http://myexample.org/S766> 152.855195389816 
<http://myexample.org/S767> 120.59931132235255 
<http://myexample.org/S768> 175.34034311009307 
<http://myexample.org/S769> 192.08941936288744 
<http://myexample.org/S770> 152.96046527140038 
<http://myexample.org/S771> 119.41307640192606 
<http://myexample.org/S772> 122.52027044775126 
<http://myexample.org/S773> 173.98867201101933 
<http://myexample.org/S774> 132.25233276014455 
<http://myexample.org/S775> 139.08545235295907 
<http://myexample.org/S776> 197.51541520215503 
<http://myexample.org/S777> 166.7278470026242 
<http://myexample.org/S778> 145.1802999698231 
<http://myexample.org/S779> 171.23871013941124 
<http://myexample.org/S780> 160.07275275221008 
<http://myexample.org/S781> 139.36304750740106 
<http://myexample.org/S782> 127.791422784539 
<http://myexample.org/S783> 164.019909225747 
<http://myexample.org/S784> 105.96003770027289 
<http://myexample.org/S785> 189.7485644454156 
<http://myexample.org/S786> 170.13671795647602 
<http://myexample.org/S787> 103.88106704232729 
<http://myexample.org/S788> 179.88052716889894 
<http://myexample.org/S789> 180.98437735921783 
<http://myexample.org/S790> 117.61973567740358 
<http://myexample.org/S791> 128.33173032371548 
<http://myexample.org/S792> 129.79478914245033 
<http://myexample.org/S793> 127.8073020783266 
<http://myexample.org/S794> 172.14004112481584 
<http://myexample.org/S795> 192.00582595109506 
<http://myexample.org/S796> 143.8636189669978 
<http://myexample.org/S797> 168.20713657635332 
<http://myexample.org/S798> 117.88809136360013 
<http://myexample.org/S799> 128.79491570018456 
<http://myexample.org/S800> 104.29244709249474 
<http://myexample.org/S801> 177.52185357501554 
<http://myexample.org/S802> 153.77702953226236 
<http://myexample.org/S803> 101.33504226971516 
<http://myexample.org/S804> 138.54903461622843 
<http://myexample.org/S805> 182.3635202709898 
<http://myexample.org/S806> 174.75077707241047 
<http://myexample.org/S807> 105.79458481010701 
<http://myexample.org/S808> 147.74269036373764 
<http://myexample.org/S809> 109.9492605963181 
<http://myexample.org/S810> 107.58667760627634 
<http://myexample.org/S811> 104.69566372585143 
<http://myexample.org/S812> 144.39458342332614 
<http://myexample.org/S813> 164.75930307787257 
<http://myexample.org/S814> 173.3149223365063 
<http://myexample.org/S815> 193.4117645074415 
<http://myexample.org/S816> 137.39520218122476 
<http://myexample.org/S817> 158.91673027693253 
<http://myexample.org/S818> 118.00582066611341 
<http://myexample.org/S819> 167.01948859728228 
<http://myexample.org/S820> 160.63638656778446 
<http://myexample.org/S821> 135.28125453887074 
<http://myexample.org/S822> 126.42995870677103 
<http://myexample.org/S823> 143.34239374608848 
<http://myexample.org/S824> 153.62174468941066 
<http://myexample.org/S825> 112.97198074903207 
<http://myexample.org/S826> 108.975117417544 
<http://myexample.org/S827> 115.31013397122189 
<http://myexample.org/S828> 167.30070149964203 
<http://myexample.org/S829> 153.88177534154516 
<http://myexample.org/S830> 131.20779931692735 
<http://myexample.org/S831> 151.16618947813447 
<http://myexample.org/S832> 186.43785903142447 
<http://myexample.org/S833> 195.7185493936189 
<http://myexample.org/S834> 137.59606832767363 
<http://myexample.org/S835> 134.59269522436577 
<http://myexample.org/S836> 131.0206527817083 
<http://myexample.org/S837> 122.20633026699456 
<http://myexample.org/S838> 106.1643469823626 
<http://myexample.org/S839> 138.48098732324027 
<http://myexample.org/S840> 123.52482175664423 
<http://myexample.org/S841> 144.30177769689675 
<http://myexample.org/S842> 159.2296869461591 
<http://myexample.org/S843> 155.86168142649709 
<http://myexample.org/S844> 186.29853831719083 
<http://myexample.org/S845> 147.62934497186475 
<http://myexample.org/S846> 146.87298161332606 
<http://myexample.org/S847> 169.4181962875131 
<http://myexample.org/S848> 163.89244845271185 
<http://myexample.org/S849> 120.81101857834743 
<http://myexample.org/S850> 114.42744012152959 
<http://myexample.org/S851> 127.04287879824489 
<http://myexample.org/S852> 148.85432365180404 
<http://myexample.org/S853> 116.96417449728919 
<http://myexample.org/S854> 163.02061253008978 
<http://myexample.org/S855> 105.05495651878242 
<http://myexample.org/S856> 126.3234073962219 
<http://myexample.org/S857> 116.36376740180155 
<http://myexample.org/S858> 113.0850868448954 
<http://myexample.org/S859> 182.98473959181698 
<http://myexample.org/S860> 142.7009195305749 
<http://myexample.org/S861> 152.11275922063862 
<http://myexample.org/S862> 184.75696359658207 
<http://myexample.org/S863> 124.23867886469586 
<http://myexample.org/S864> 146.7396527446685 
<http://myexample.org/S865> 132.6372603010143 
<http://myexample.org/S866> 116.2100517863205 
<http://myexample.org/S867> 155.49495672093747 
<http://myexample.org/S868> 147.58691425801166 
<http://myexample.org/S869> 144.92061563092605 
<http://myexample.org/S870> 151.227684955725 
<http://myexample.org/S871> 164.33955447549758 
<http://myexample.org/S872> 183.63158418452872 
<http://myexample.org/S873> 150.61324475632694 
<http://myexample.org/S874> 140.69294164945825 
<http://myexample.org/S875> 189.43780735270877 
<http://myexample.org/S876> 198.44734188574807 
<http://myexample.org/S877> 193.5027605074091 
<http://myexample.org/S878> 119.18193618618425 
<http://myexample.org/S879> 160.4466513780862 
<http://myexample.org/S880> 175.69060886823405 
<http://myexample.org/S881> 121.30148617049261 
<http://myexample.org/S882> 137.47383817455244 
<http://myexample.org/S883> 155.90793249315027 
<http://myexample.org/S884> 193.5031540510391 
<http://myexample.org/S885> 187.30622109764246 
<http://myexample.org/S886> 154.54504732974965 
<http://myexample.org/S887> 186.52326449431092 
<http://myexample.org/S888> 120.78565220520575 
<http://myexample.org/S889> 138.20767291193764 
<http://myexample.org/S890> 118.49400050231836 
<http://myexample.org/S891> 178.49614248465627 
<http://myexample.org/S892> 192.6499787253946 
<http://myexample.org/S893> 113.17473210969668 
<http://myexample.org/S894> 194.8468988837655 
<http://myexample.org/S895> 127.03709803214224 
<http://myexample.org/S896> 170.42433729813064 
<http://myexample.org/S897> 176.3113185912655 
<http://myexample.org/S898> 132.8235727308455 
<http://myexample.org/S899> 113.66290278113816 
<http://myexample.org/S900> 112.77682699120435 
<http://myexample.org/S901> 179.68126391915706 
<http://myexample.org/S902> 195.39663987381488 
<http://myexample.org/S903> 132.5809444875013 
<http://myexample.org/S904> 158.8393639434345 
<http://myexample.org/S905> 107.31931286340411 
<http://myexample.org/S906> 117.35596141553334 
<http://myexample.org/S907> 151.2350906641518 
<http://myexample.org/S908> 151.65534079139582 
<http://myexample.org/S909> 181.9939865309098 
<http://myexample.org/S910> 197.09436796474176 
<http://myexample.org/S911> 137.9994533414876 
<http://myexample.org/S912> 110.84079134091022 
<http://myexample.org/S913> 125.96071728602925 
<http://myexample.org/S914> 172.45948256949129 
<http://myexample.org/S915> 126.04169738234258 
<http://myexample.org/S916> 197.04023308422336 
<http://myexample.org/S917> 154.54131444138687 
<http://myexample.org/S918> 178.77040041097104 
<http://myexample.org/S919> 146.53763655445354 
<http://myexample.org/S920> 197.5747889590701 
<http://myexample.org/S921> 147.0884627420712 
<http://myexample.org/S922> 137.97690044610567 
<http://myexample.org/S923> 156.70403881036032 
<http://myexample.org/S924> 102.62153495491363 
<http://myexample.org/S925> 183.74165258749574 
<http://myexample.org/S926> 181.94274266787355 
<http://myexample.org/S927> 108.52672107800146 
<http://myexample.org/S928> 134.32952766368345 
<http://myexample.org/S929> 158.35354123164703 
<http://myexample.org/S930> 169.96350907021082 
<http://myexample.org/S931> 152.59615283486798 
<http://myexample.org/S932> 137.46926609853742 
<http://myexample.org/S933> 178.06345202006082 
<http://myexample.org/S934> 120.88342146309778 
<http://myexample.org/S935> 148.12298133024794 
<http://myexample.org/S936> 139.52880461333316 
<http://myexample.org/S937> 138.21733885547104 
<http://myexample.org/S938> 143.55434676206997 
<http://myexample.org/S939> 154.99098307164027 
<http://myexample.org/S940> 140.61116632263247 
<http://myexample.org/S941> 117.68122156503524 
<http://myexample.org/S942> 115.88426009235135 
<http://myexample.org/S943> 116.61518793246303 
<http://myexample.org/S944> 199.0540256006779 
<http://myexample.org/S945> 174.06773185234994 
<http://myexample.org/S946> 132.35119536566174 
<http://myexample.org/S947> 103.40798316295079 
<http://myexample.org/S948> 137.3841186400506 
<http://myexample.org/S949> 130.99310932571535 
<http://myexample.org/S950> 112.61274411210208 
<http://myexample.org/S951> 175.81626169400425 
<http://myexample.org/S952> 105.03521210400241 
<http://myexample.org/S953> 140.2045649456672 
<http://myexample.org/S954> 139.71997603216147 
<http://myexample.org/S955> 143.17773902407012 
<http://myexample.org/S956> 199.19985764212794 
<http://myexample.org/S957> 170.26568613311403 
<http://myexample.org/S958> 175.44861107303603 
<http://myexample.org/S959> 140.05479522068475 
<http://myexample.org/S960> 163.2515948879229 
<http://myexample.org/S961> 120.46013013617262 
<http://myexample.org/S962> 182.38917464366182 
<http://myexample.org/S963> 115.23929916742725 
<http://myexample.org/S964> 153.3656272502647 
<http://myexample.org/S965> 183.6715395823187 
<http://myexample.org/S966> 167.69176105773676 
<http://myexample.org/S967> 130.28206764134032 
<http://myexample.org/S968> 188.28247259370133 
<http://myexample.org/S969> 185.22029723347848 
<http://myexample.org/S970> 151.73991990389197 
<http://myexample.org/S971> 194.1857545939029 
<http://myexample.org/S972> 174.60039122176795 
<http://myexample.org/S973> 105.98532938844139 
<http://myexample.org/S974> 156.53215072368712 
<http://myexample.org/S975> 118.81011871524497 
<http://myexample.org/S976> 130.54893366588013 
<http://myexample.org/S977> 157.6118956371265 
<http://myexample.org/S978> 103.17831812371678 
<http://myexample.org/S979> 165.57375614463257 
<http://myexample.org/S980> 114.88721952985026 
<http://myexample.org/S981> 115.20390450434857 
<http://myexample.org/S982> 105.67225643918697 
<http://myexample.org/S983> 168.19659945728142 
<http://myexample.org/S984> 104.38707162691772 
<http://myexample.org/S985> 128.62197556282734 
<http://myexample.org/S986> 148.98071764706455 
<http://myexample.org/S987> 158.51256966237457 
<http://myexample.org/S988> 153.3024845410182 
<http://myexample.org/S989> 127.35612155790655 
<http://myexample.org/S990> 143.4927580374174 
<http://myexample.org/S991> 192.79195734787731 
<http://myexample.org/S992> 111.29331365321976 
<http://myexample.org/S993> 105.91458473258169 
<http://myexample.org/S994> 155.00247490756777 
<http://myexample.org/S995> 174.54829799623457 
<http://myexample.org/S996> 172.46249532515043 
<http://myexample.org/S997> 126.76798963784657 
<http://myexample.org/S998> 119.65206379397353 
<http://myexample.org/S999> 196.46458311258806 
