timestampe,oracle,in,U,V, Vscore, Uscore, fbV
150,67,43,43,43,45,47,45 
180,58,40,40,40,40,44,40 
210,69,58,55,55,53,53,53 
240,49,42,39,39,37,39,37 
270,32,22,20,20,20,17,20 
300,55,42,43,43,36,38,36 
330,44,32,31,31,25,29,23 
360,52,37,38,38,31,35,29 
390,55,41,40,40,36,38,34 
420,53,39,38,38,34,44,34 
450,54,40,40,40,35,44,35 
480,60,43,47,47,40,48,40 
510,52,35,41,39,28,43,28 
540,39,31,31,31,23,29,21 
570,41,32,33,33,29,32,27 
600,33,26,26,26,24,26,22 
630,16,11,9,9,7,9,7 
660,24,18,18,18,14,15,14 
690,40,32,29,29,27,28,27 
720,36,29,29,29,25,30,25 
750,46,36,36,36,32,38,32 
780,46,34,33,33,31,37,31 
810,38,30,30,30,24,33,24 
840,22,15,15,15,11,14,11 
870,36,28,27,27,26,26,26 
900,36,26,26,26,23,24,23 
930,58,43,43,43,42,42,42 
960,48,41,41,41,35,44,35 
990,48,39,41,41,35,41,35 
1020,47,36,38,38,35,42,35 
1050,39,31,33,33,29,30,29 
1080,27,21,21,21,16,17,16 
1110,35,25,25,25,21,21,21 
1140,35,26,27,27,23,25,23 
1170,49,35,36,36,34,36,34 
1200,46,36,36,36,33,35,33 
1230,53,41,41,41,33,40,33 
1260,52,41,41,41,36,46,32 
1290,52,43,44,44,36,46,32 
1320,46,37,37,37,29,42,29 
1350,40,30,29,29,22,35,22 
1380,52,44,43,43,41,45,40 
1410,45,38,37,37,35,39,34 
1440,56,47,46,46,43,48,42 
1470,48,38,38,38,32,36,31 
1500,48,36,36,36,29,33,28 
1530,27,19,19,19,13,17,13 
1560,26,22,22,22,17,21,17 
1590,21,16,16,16,14,15,14 
1620,32,25,26,26,21,26,21 
1650,56,44,48,48,39,47,39 
1680,48,41,41,41,33,42,33 
1710,63,53,57,57,45,57,45 
1740,57,47,51,51,36,50,36 
1770,46,34,37,37,25,39,25 
1800,22,15,13,13,10,13,10 
1830,36,24,22,22,19,21,19 
1860,14,10,9,9,9,10,9 
1890,38,31,31,31,28,29,27 
1920,49,38,40,40,32,35,31 
1950,49,38,43,43,32,39,31 
1980,41,32,33,33,24,38,23 
2010,41,27,27,27,21,34,21 
2040,34,26,25,25,22,24,22 
2070,23,17,18,18,16,18,16 
2100,34,26,26,26,19,27,19 
2130,35,25,25,25,19,28,19 
2160,47,39,39,39,33,33,33 
2190,30,21,21,21,16,19,16 
2220,45,32,32,32,27,30,27 
2250,45,30,30,29,25,28,25 
2280,38,26,27,26,23,28,23 
2310,26,18,17,17,14,18,14 
2340,43,31,34,34,28,37,28 
2370,28,19,21,21,16,25,16 
2400,24,16,17,17,14,18,14 
2430,38,24,25,25,20,27,20 
2460,38,23,25,25,18,25,17 
2490,21,9,10,10,6,10,5 
2520,21,10,11,11,7,9,6 
2550,14,4,4,4,1,1,1 
2580,5,2,2,2,2,2,2 
2610,5,0,0,0,0,0,0 
2640,5,0,0,0,0,0,0 
2670,14,8,8,8,8,8,7 
2700,28,19,18,18,19,21,18 
2730,32,24,24,24,24,25,24 
2760,32,24,24,24,21,28,21 
2790,32,23,23,23,17,24,17 
2820,23,16,15,15,9,15,9 
2850,9,4,4,4,0,5,0 
2880,36,27,27,27,27,29,27 
2910,36,24,24,24,26,27,26 
2940,36,23,22,22,22,23,22 
2970,36,24,24,24,20,21,20 
3000,36,22,22,22,18,20,18 
3060,19,15,15,15,15,15,12 
3090,25,17,19,19,17,17,13 
3120,56,47,47,47,43,49,37 
3150,61,48,50,50,47,53,42 
3180,61,52,52,52,46,53,43 
3210,42,34,33,33,26,36,23 
3240,43,34,35,35,28,32,28 
3270,12,7,7,7,5,4,5 
3300,15,10,10,10,8,10,8 
3330,31,19,21,21,20,20,20 
3360,42,28,28,28,26,31,26 
3390,58,41,41,41,37,49,37 
3420,58,38,40,40,35,48,35 
3450,50,36,35,35,32,44,32 
3480,34,22,22,22,17,30,17 
3510,23,15,16,16,9,17,9 
3570,8,5,5,5,5,5,2 
3600,16,12,12,12,10,10,9 
3630,16,11,10,10,8,9,8 
3660,43,34,33,33,31,31,31 
3690,51,38,38,38,38,39,38 
3720,55,47,46,46,42,49,42 
3750,47,38,37,37,31,38,31 
3780,61,51,49,49,44,53,44 
3810,34,27,25,25,20,23,20 
3840,34,26,25,25,22,24,22 
3870,14,9,9,9,6,9,6 
3900,22,14,14,14,11,12,11 
3930,30,20,20,20,18,18,18 
3960,37,25,27,27,25,26,24 
3990,55,41,41,41,40,39,39 
4020,71,48,53,51,47,53,46 
4050,63,50,51,50,43,58,42 
4080,41,28,28,26,23,35,22 
4110,58,42,42,40,36,51,36 
4140,40,27,29,29,25,35,25 
4170,24,18,20,20,15,18,15 
4200,42,31,31,31,26,33,26 
4230,52,41,40,40,34,39,34 
4260,42,33,33,33,30,36,30 
4290,42,35,35,35,29,33,29 
4320,28,22,21,21,16,18,16 
4350,16,11,12,12,7,12,7 
4380,13,8,8,8,7,6,7 
4410,13,5,7,7,4,4,4 
4440,13,6,8,8,4,5,4 
4470,13,4,7,7,2,3,2 
4500,7,1,4,4,0,1,0 
4590,15,11,12,12,10,11,3 
4620,15,9,10,10,7,8,2 
4650,33,24,23,23,20,22,18 
4680,45,35,34,34,34,33,30 
4710,45,33,34,34,32,33,28 
4740,39,29,29,29,23,30,23 
4770,45,36,36,36,30,36,30 
4800,27,22,23,23,18,23,18 
4830,24,17,18,18,14,18,14 
4860,24,17,19,19,12,19,12 
4890,15,8,9,9,5,9,5 
4920,9,4,6,6,2,6,2 
4950,9,5,6,6,1,3,1 
5070,17,13,13,13,14,14,4 
5100,17,13,12,12,10,10,4 
5130,23,16,16,16,12,15,9 
5160,33,23,24,24,20,24,19 
5190,33,22,23,23,18,24,18 
5220,16,10,10,10,5,13,5 
5250,26,15,19,19,11,21,11 
5280,20,12,14,14,10,15,10 
5310,17,11,11,11,8,12,8 
5340,17,12,11,11,8,9,8 
5370,26,20,19,19,18,19,18 
5400,24,19,18,18,16,19,16 
5430,30,21,20,20,19,22,19 
5460,23,15,16,16,9,18,9 
5490,23,14,14,14,8,16,8 
5520,34,23,24,24,19,25,19 
5550,26,18,18,18,19,19,19 
5580,20,15,15,15,11,17,11 
5610,38,26,26,26,24,30,24 
5640,45,36,34,34,30,38,29 
5670,25,19,19,19,15,19,14 
5700,58,47,47,47,46,45,44 
5730,65,51,51,51,49,54,47 
5760,55,45,43,43,38,44,38 
5790,48,40,39,39,30,40,30 
5820,55,43,44,44,36,44,36 
5850,22,18,18,18,13,16,13 
5880,15,10,10,10,6,9,6 
5910,16,9,8,8,5,5,5 
5940,27,17,17,17,15,15,15 
5970,53,42,41,41,35,39,35 
6000,53,38,38,38,31,38,31 
6030,53,36,37,37,29,35,29 
6060,70,56,55,55,47,59,47 
6090,59,46,47,47,39,48,39 
6120,26,19,20,20,15,21,15 
6150,26,17,19,19,11,17,11 
6180,26,18,19,19,12,17,12 
6210,5,2,2,2,2,2,2 
6240,22,17,17,17,16,15,16 
6270,22,15,15,15,12,15,12 
6300,42,35,36,36,33,34,33 
6330,56,50,49,49,43,45,43 
6360,51,40,44,44,36,43,36 
6390,34,26,27,27,21,27,21 
6420,59,49,48,48,41,46,41 
6450,39,32,32,32,30,34,30 
6480,25,18,18,18,15,17,15 
6510,25,17,17,17,11,15,11 
6540,43,33,34,34,28,33,28 
6570,29,20,21,21,17,19,17 
6600,36,24,24,24,22,21,22 
6630,64,47,47,47,41,46,41 
6660,71,51,52,50,46,52,46 
6690,72,53,54,54,49,62,49 
6720,106,85,90,90,80,97,80 
6750,101,86,87,87,73,88,73 
6780,73,61,61,61,53,58,53 
6810,66,55,56,56,45,58,45 
6840,56,44,45,45,34,44,34 
6870,22,15,16,16,12,17,12 
6900,9,6,4,4,2,2,2 
6960,11,8,8,8,7,8,4 
6990,18,13,13,13,12,12,9 
7020,36,27,28,28,27,27,25 
7050,36,26,27,27,23,25,22 
7080,44,29,29,29,27,29,27 
7110,56,37,41,41,37,42,37 
7140,71,56,56,56,52,57,52 
7170,61,45,45,45,42,48,42 
7200,67,53,51,51,45,52,45 
7230,59,42,44,44,39,52,39 
7260,36,26,25,25,23,26,23 
7290,14,8,7,7,3,10,3 
7320,14,8,8,8,3,8,3 
7350,9,6,6,6,6,6,6 
7380,20,13,13,13,14,13,14 
7410,20,13,14,14,11,15,11 
7440,20,10,11,11,8,11,8 
7470,27,16,18,18,11,19,11 
7500,18,13,12,12,8,12,8 
7530,33,24,23,23,23,23,23 
7560,33,22,22,22,21,22,21 
7590,41,27,31,31,26,28,26 
7620,34,24,25,25,19,24,19 
7650,60,48,48,48,40,43,40 
7680,34,24,23,23,21,27,21 
7710,63,54,53,53,48,52,48 
7740,66,56,57,57,47,56,47 
7770,66,51,52,52,42,53,42 
7800,40,30,30,30,26,30,26 
7830,55,41,42,40,38,42,38 
7860,26,20,20,19,17,20,17 
7890,15,9,9,9,5,9,5 
7920,15,11,10,11,6,10,6 
7950,15,8,9,9,6,9,6 
8070,9,6,6,6,6,6,0 
8100,9,5,5,5,3,3,0 
8130,9,3,3,3,0,0,0 
8160,25,18,18,18,16,16,13 
8190,25,17,17,17,14,15,10 
8220,16,10,12,12,6,12,5 
8250,37,25,27,27,24,28,24 
8280,37,23,25,25,24,25,24 
8310,28,18,20,20,17,18,17 
8340,39,29,29,29,24,28,24 
8370,45,33,35,35,26,35,26 
8400,35,28,29,29,25,26,25 
8430,58,51,51,51,45,46,45 
8460,51,42,44,44,37,43,37 
8490,62,53,53,53,48,53,48 
8520,64,52,52,52,49,57,49 
8550,82,66,66,66,60,68,60 
8580,104,90,90,90,79,93,79 
8610,104,86,89,89,76,93,76 
8640,82,74,74,74,65,73,65 
8670,74,64,63,63,55,67,55 
8700,45,36,37,37,29,38,29 
8760,28,23,23,23,24,24,21 
8790,35,28,28,28,28,28,25 
8820,44,33,33,33,33,36,29 
8850,44,33,34,34,29,36,27 
8880,55,42,43,43,36,43,36 
8910,41,30,33,33,26,36,26 
8940,34,25,26,26,20,27,20 
8970,25,18,19,19,15,21,15 
9000,33,24,26,26,22,25,22 
9030,22,18,17,17,12,16,12 
9060,43,32,34,34,28,37,28 
9090,60,51,50,50,45,50,45 
9120,67,55,53,53,51,56,51 
9150,59,51,52,52,44,49,44 
9180,59,51,50,50,41,50,41 
9210,49,42,39,39,31,36,31 
9240,61,47,48,48,42,51,42 
9270,44,30,30,30,27,38,27 
9300,91,69,70,70,66,76,66 
9330,98,72,73,73,68,81,68 
9360,73,55,56,56,48,61,48 
9390,54,42,42,42,35,45,35 
9420,65,54,53,53,50,53,50 
9450,18,14,13,13,12,12,12 
9480,19,15,16,16,11,16,11 
9510,26,21,22,22,17,20,17 
9540,26,21,21,21,16,18,16 
9570,15,8,8,8,5,7,5 
9600,42,28,32,32,26,36,26 
9630,34,24,26,26,22,29,22 
9660,27,21,21,21,17,22,17 
9690,27,21,21,21,16,20,16 
9720,37,30,30,30,23,28,23 
9750,18,14,14,14,12,14,12 
9780,18,12,12,12,9,12,9 
9810,18,13,12,12,6,9,6 
9840,27,20,20,20,15,20,15 
9870,17,12,12,12,10,11,10 
9900,9,5,6,6,0,6,0 
9930,9,2,3,3,0,3,0 
9960,9,4,4,4,3,3,0 
9990,24,14,14,14,14,14,10 
10020,15,10,10,10,9,9,7 
10050,15,7,7,7,6,6,4 
10080,24,12,12,12,9,9,7 
10110,24,12,12,12,9,11,9 
10140,9,2,1,1,0,2,0 
10170,23,16,15,15,14,14,13 
10200,41,30,28,28,27,28,25 
10230,52,34,35,35,34,35,32 
10260,63,49,49,49,45,46,38 
10290,73,56,51,51,47,50,39 
10320,69,57,50,50,45,52,45 
10350,42,33,31,31,30,35,30 
10380,45,36,36,36,32,36,32 
10410,34,25,27,27,20,23,20 
10440,24,17,18,18,14,19,14 
10470,14,9,10,10,5,10,5 
10500,42,34,36,36,31,33,31 
10530,28,22,23,23,20,20,20 
10560,28,21,24,24,18,20,18 
10590,28,18,25,25,15,20,15 
10620,28,18,25,25,12,19,12 
10650,14,9,11,11,5,11,5 
10680,19,15,16,16,15,16,15 
10710,38,28,28,28,31,31,31 
10740,48,36,35,35,37,37,37 
10770,54,44,41,41,40,43,40 
10800,63,54,52,52,47,54,47 
10830,44,38,37,37,29,39,29 
10860,25,19,20,20,13,20,13 
10890,15,10,11,11,4,9,4 
10920,9,3,6,6,1,6,1 
10950,7,4,4,4,4,4,4 
10980,19,12,12,12,12,11,12 
11010,33,22,25,25,22,24,22 
11040,58,49,49,49,42,46,42 
11070,58,46,48,48,39,45,39 
11100,62,47,52,52,45,55,45 
11130,50,40,40,40,34,43,34 
11160,36,28,26,26,22,27,22 
11190,18,14,14,14,7,12,7 
11220,18,12,11,11,5,9,5 
11250,10,7,7,7,7,7,7 
11280,19,15,15,15,13,13,13 
11310,19,16,16,16,11,11,10 
11340,19,15,15,15,8,10,7 
11370,19,14,14,14,5,9,4 
11400,18,13,13,13,11,14,11 
11430,9,5,5,5,3,3,3 
11460,9,4,4,4,2,2,2 
11490,21,15,15,15,13,13,13 
11520,28,20,21,21,20,21,20 
11550,27,19,20,20,17,22,17 
11580,82,66,68,68,59,69,59 
11610,82,68,68,68,57,66,57 
11640,70,58,57,57,48,52,48 
11670,63,55,56,56,46,56,46 
11700,55,44,47,47,36,48,36 
11730,7,4,4,4,4,4,4 
11760,15,11,12,12,9,11,9 
11790,15,12,10,10,8,8,8 
11820,15,11,11,11,5,10,5 
11850,37,31,30,30,25,29,24 
11880,30,24,24,24,22,25,16 
11910,32,25,24,24,24,26,19 
11940,41,34,32,32,30,32,27 
11970,53,44,42,42,39,41,36 
