timestampe,oracle,in,U,V, Vscore, Uscore,rand,drand,lru, uScoreRemove
150,16,4,4,4,5,10,10,8,10,4
180,13,2,1,1,2,0,6,6,3,1
210,10,2,1,2,2,4,6,5,4,1
240,11,3,2,3,2,4,7,8,5,2
270,11,3,2,3,2,7,6,10,5,2
300,12,6,6,6,8,8,9,10,9,6
330,14,7,5,5,7,10,8,11,10,5
360,14,8,7,8,6,7,8,9,9,7
390,13,8,5,6,6,7,11,10,9,5
420,12,6,5,6,5,8,7,10,8,5
450,4,2,1,1,0,0,3,2,1,1
480,9,7,4,5,5,5,6,4,6,4
510,9,5,4,4,4,4,7,6,7,4
540,12,10,8,10,9,9,12,12,10,8
570,14,12,7,8,12,10,13,14,12,7
600,19,17,14,15,18,19,19,19,18,14
630,15,12,10,13,11,14,15,15,15,10
660,24,22,17,20,19,23,24,24,23,17
690,23,20,14,17,18,23,23,21,22,14
720,26,24,19,21,22,24,26,25,26,19
750,20,17,12,16,16,18,20,19,20,12
780,20,17,12,15,16,19,20,18,19,12
810,10,9,5,7,6,9,10,10,10,5
840,9,7,3,6,4,7,9,9,9,3
870,4,4,1,1,2,3,4,4,3,1
900,4,3,1,1,2,2,3,4,4,1
930,4,3,2,2,3,3,4,4,4,2
960,10,8,6,6,8,8,9,10,10,6
990,10,8,6,6,8,9,10,10,10,6
1020,10,9,6,6,9,9,10,10,10,6
1050,10,10,6,6,10,10,9,10,10,6
1080,9,8,5,5,6,8,8,9,9,5
1110,11,11,10,11,9,10,11,11,11,10
1140,13,13,10,11,12,10,13,13,13,10
1170,12,12,8,9,11,11,12,12,11,8
1200,12,12,8,9,10,11,12,12,12,8
1230,22,21,18,19,21,21,22,22,22,18
1260,14,13,12,13,13,14,14,14,14,12
1290,15,14,12,13,14,15,15,15,15,12
1320,14,13,11,11,11,13,14,14,14,11
1350,13,12,10,10,9,12,13,13,13,10
1380,4,4,3,3,3,4,4,4,4,3
1410,10,10,8,8,10,8,10,9,10,7
1440,10,10,7,7,9,9,10,10,9,8
1470,11,11,7,8,9,10,10,11,10,8
1500,10,10,5,6,7,9,9,10,9,6
1530,10,9,5,6,6,10,10,10,9,6
1560,4,4,2,3,0,3,4,4,4,3
1590,3,3,1,1,0,2,2,3,2,1
1620,3,1,0,0,0,1,1,3,1,0
1650,5,3,1,1,1,1,1,4,3,1
1680,12,10,7,8,10,10,11,10,11,7
1710,12,8,6,6,10,10,11,10,11,6
1740,11,10,7,7,11,11,11,11,11,7
1770,12,12,7,8,12,12,12,12,12,7
1800,9,9,6,6,7,8,9,9,9,6
1830,3,3,2,2,1,3,3,3,3,2
1860,4,4,3,3,2,4,4,4,4,3
1890,11,11,9,9,11,10,11,11,11,9
1920,10,10,8,7,9,8,10,10,9,8
1950,10,10,8,8,9,7,10,10,9,8
1980,11,11,8,9,8,8,11,11,10,8
2010,10,9,7,7,7,7,10,10,9,7
2040,2,0,0,0,0,0,2,2,0,0
2070,11,11,9,10,10,11,11,11,11,9
2100,13,12,10,11,11,13,13,13,13,10
2130,20,19,17,19,18,20,20,20,19,17
2160,22,21,18,19,20,20,22,22,22,18
2190,22,21,18,19,20,20,22,22,22,18
2220,13,13,11,11,11,12,13,13,13,11
2250,13,13,10,10,11,13,13,13,12,10
2280,13,11,10,10,9,13,13,13,13,11
2310,11,8,7,8,7,11,11,11,11,8
2340,13,11,8,9,10,11,13,13,13,8
2370,19,18,14,15,16,16,18,19,19,14
2400,19,18,14,15,18,18,19,19,19,14
2430,13,12,10,11,11,10,13,13,13,10
2460,14,12,10,12,12,13,14,14,14,10
2490,20,18,15,16,19,18,18,20,20,15
2520,17,17,14,16,17,17,16,17,17,14
2550,22,22,20,21,19,21,22,22,22,20
2580,20,20,17,19,13,18,20,20,20,18
2610,19,19,17,17,14,17,19,19,19,17
2640,12,12,11,10,9,12,12,12,12,11
2670,10,10,8,9,8,9,10,10,10,9
2700,4,4,3,4,2,2,4,4,4,3
2730,4,4,2,3,0,0,4,4,3,3
2760,4,3,1,3,1,2,4,4,4,2
2790,11,10,7,10,8,10,10,11,10,8
2820,11,11,8,10,9,9,10,11,11,8
2850,12,12,10,11,9,11,12,12,12,10
2880,12,12,10,10,10,11,12,12,12,10
2910,11,10,8,10,8,9,11,11,11,8
2940,14,14,12,14,13,13,14,14,14,12
2970,13,12,11,12,13,11,13,13,12,11
3000,12,12,11,10,12,10,12,12,12,11
3030,12,12,10,10,12,10,12,12,11,10
3060,12,12,10,9,12,9,12,12,11,10
3090,9,9,8,8,9,8,9,9,9,8
3120,11,11,9,10,11,10,11,11,11,9
3150,11,11,9,9,11,10,11,11,11,9
3180,12,12,10,10,9,11,12,12,12,10
3210,12,12,9,9,8,12,12,12,12,9
3240,15,15,14,14,13,14,15,15,15,14
3270,13,13,11,11,11,12,13,13,13,11
3300,13,13,11,11,11,12,13,13,13,11
3330,14,13,11,11,13,12,14,14,14,11
3360,20,19,17,19,20,18,20,20,20,18
3390,9,9,7,8,9,8,9,9,9,7
3420,10,10,7,8,10,8,10,10,10,7
3450,11,11,9,9,11,9,11,11,11,9
3480,10,10,8,8,10,8,10,10,10,8
3510,3,3,2,2,0,2,3,3,3,1
3540,11,11,9,8,10,10,11,11,11,9
3570,12,12,9,9,11,10,12,12,12,9
3600,10,8,7,7,9,7,10,10,10,7
3630,10,7,6,6,7,9,10,10,10,6
3660,10,7,5,5,6,8,10,10,10,5
3690,6,5,5,4,4,4,6,6,6,5
3720,11,9,8,8,10,9,11,11,11,6
3750,13,12,8,10,12,13,13,13,13,7
3780,20,20,13,17,17,19,20,20,20,13
3810,23,22,14,18,19,21,22,23,23,13
3840,22,21,13,16,17,19,20,21,22,13
3870,21,19,13,15,17,19,17,20,21,13
3900,20,17,13,14,15,18,18,19,20,13
3930,13,11,7,8,9,9,12,12,13,8
3960,19,16,11,15,13,18,18,18,19,12
3990,21,20,13,17,20,19,20,20,21,14
4020,15,15,12,15,15,14,15,15,15,13
4050,15,15,10,15,14,14,15,15,15,11
4080,16,16,11,15,13,15,16,16,16,12
4110,14,13,10,11,12,12,14,14,14,11
4140,11,10,7,7,9,9,11,11,10,7
4170,10,10,7,7,7,9,10,10,9,6
4200,10,10,7,8,10,9,10,10,9,6
4230,13,13,9,12,12,13,13,13,12,9
4260,11,10,9,11,9,11,11,11,11,8
4290,12,11,10,11,10,11,12,12,12,9
4320,13,12,11,10,11,12,13,13,13,10
4350,13,12,11,9,11,13,13,13,13,10
4380,12,10,9,9,9,11,12,12,11,10
4410,13,13,10,11,10,12,13,13,13,10
4440,13,13,10,10,10,13,13,13,13,10
4470,11,10,7,7,8,9,11,11,11,7
4500,12,11,7,8,7,10,12,12,12,7
4530,17,14,12,13,12,15,17,17,17,12
4560,12,12,9,9,9,10,12,12,12,10
4590,12,12,9,9,8,10,12,12,12,9
4620,12,12,8,9,7,10,12,12,12,9
4650,11,11,7,8,8,9,11,11,10,7
4680,3,2,2,3,0,3,3,3,3,2
4710,3,3,2,2,0,3,3,3,3,2
4740,2,2,1,2,1,2,2,2,2,1
4770,9,9,8,9,9,8,9,9,9,8
4800,11,11,9,10,10,10,11,11,11,9
4830,12,12,9,10,11,11,12,12,12,9
4860,12,12,8,10,11,10,12,12,12,8
4890,11,10,6,7,7,8,11,11,11,6
4920,5,4,3,3,2,4,4,5,5,2
4950,10,10,8,10,9,9,10,10,10,8
4980,11,11,9,10,11,10,11,11,11,9
5010,11,11,9,9,11,9,11,11,11,9
5040,12,12,9,10,11,10,12,12,12,9
5070,12,12,8,9,10,12,12,12,12,8
5100,5,5,3,4,2,4,5,5,4,2
5130,12,12,8,10,9,12,12,11,11,8
5160,11,11,8,8,8,11,11,11,11,8
5190,10,9,5,7,6,8,10,10,10,5
5220,9,9,5,7,6,8,8,9,9,5
5250,11,11,7,8,9,10,10,11,11,7
5280,3,3,2,3,0,1,3,3,3,2
5310,3,3,1,2,0,1,3,3,3,1
5340,4,4,1,2,0,1,4,4,4,1
5370,4,2,1,1,0,0,1,3,0,1
5400,11,10,7,8,8,8,9,11,9,7
5430,12,11,8,9,10,10,11,12,11,8
5460,13,12,8,10,10,11,12,13,12,8
5490,14,14,10,12,14,13,14,14,14,10
5520,18,18,13,16,17,18,18,18,18,13
5550,13,11,11,12,13,13,13,13,13,10
5580,13,11,10,12,10,12,13,13,13,9
5610,12,10,9,11,8,8,11,12,12,9
5640,19,16,15,15,15,17,19,19,19,15
5670,13,11,8,10,9,12,13,13,13,9
5700,11,9,8,9,9,11,11,11,11,8
5730,11,8,7,9,8,10,11,11,11,8
5760,13,11,9,11,12,12,12,13,13,9
5790,12,12,9,10,10,11,12,12,12,9
5820,13,12,11,12,11,12,13,13,12,9
5850,20,19,16,17,17,18,19,20,20,15
5880,21,18,15,18,18,20,20,20,20,15
5910,20,18,14,17,18,18,20,20,20,14
5940,16,13,11,14,13,13,15,15,16,12
5970,14,12,10,12,12,12,14,14,13,9
6000,14,14,10,12,11,12,14,14,13,9
6030,13,12,8,10,10,12,13,13,12,7
6060,14,12,6,9,9,12,13,14,13,7
6090,12,10,7,10,8,11,11,12,11,8
6120,12,11,8,11,8,9,12,12,12,9
6150,4,2,3,2,0,0,4,4,3,1
6180,10,10,7,7,8,7,10,10,10,6
6210,11,9,5,7,8,8,11,9,9,6
6240,11,9,5,6,6,8,11,10,8,5
6270,10,9,5,7,6,7,10,10,9,5
6300,19,17,14,16,16,17,19,19,19,15
6330,13,12,11,13,11,12,13,13,13,11
6360,14,12,11,13,13,13,14,14,13,11
6390,13,12,10,12,12,11,13,13,13,10
6420,14,13,10,12,12,12,14,14,14,10
6450,15,14,11,13,13,10,15,15,15,11
6480,16,15,11,13,13,11,16,16,16,12
6510,15,13,9,10,12,11,15,15,14,9
6540,19,17,12,15,15,15,18,19,18,11
6570,18,17,12,14,14,15,18,17,17,13
6600,10,10,7,9,8,9,10,10,10,7
6630,9,9,5,6,6,9,8,9,9,5
6660,9,9,6,7,8,8,8,9,9,6
6690,11,11,8,10,10,9,11,10,11,9
6720,14,14,12,14,14,12,14,14,14,12
6750,14,14,11,12,13,11,14,14,14,11
6780,17,17,14,15,16,15,17,17,17,14
6810,17,16,14,14,16,15,17,17,17,13
6840,17,16,13,15,15,14,17,17,17,13
6870,11,10,7,9,7,9,11,11,11,8
6900,10,9,5,8,4,8,10,10,10,7
6930,5,2,1,3,0,5,4,5,5,2
6960,11,10,7,9,9,9,10,11,10,8
6990,10,9,7,9,8,10,10,10,10,7
7020,12,12,9,11,11,11,12,12,12,9
7050,12,12,9,9,11,10,12,12,12,9
7080,11,11,8,9,8,9,11,10,11,8
7110,5,5,2,2,0,4,5,5,5,1
7140,11,11,8,8,9,9,11,11,11,7
7170,9,9,6,7,8,8,9,9,9,6
7200,10,10,7,8,9,9,10,10,10,7
7230,11,11,8,8,10,10,10,11,11,8
7260,10,10,7,8,7,8,10,10,10,7
7290,5,4,3,3,2,3,5,5,5,3
7320,5,5,3,3,4,4,5,5,5,3
7350,5,5,3,3,3,4,5,5,5,3
7380,9,9,6,6,8,7,8,9,9,5
7410,10,9,6,6,8,7,8,9,10,6
7440,10,9,6,7,9,8,10,8,10,7
7470,10,8,5,6,8,9,9,9,10,6
7500,10,8,5,5,5,8,10,9,10,6
7530,11,9,6,7,9,10,11,10,11,7
7560,12,12,8,8,9,11,12,12,12,8
7590,11,11,7,7,9,8,11,11,11,7
7620,10,10,5,7,7,9,10,10,10,6
7650,16,16,10,13,14,16,16,16,16,11
7680,11,11,8,9,9,10,11,11,11,7
7710,11,9,7,9,9,10,11,11,11,7
7740,11,10,8,8,8,9,11,10,11,8
7770,12,12,9,9,10,11,12,12,12,9
7800,4,3,3,3,2,3,4,4,4,2
7830,6,5,4,4,5,5,6,5,6,4
7860,11,11,8,9,9,9,11,9,10,8
7890,9,9,7,9,7,7,9,9,9,7
7920,9,9,6,7,7,7,9,9,9,7
7950,10,10,7,8,7,7,10,10,10,7
7980,9,9,7,7,5,7,9,9,9,7
8010,11,11,9,9,9,11,11,11,11,10
8040,11,11,9,9,10,8,11,11,11,8
8070,10,10,8,6,9,7,10,10,10,8
8100,9,9,8,7,7,6,9,9,9,8
8130,10,10,8,7,10,8,10,10,10,8
8160,11,11,9,9,11,10,11,11,11,9
8190,12,12,10,12,12,11,12,12,12,10
8220,14,14,12,14,14,12,14,14,14,12
8250,15,15,13,14,15,14,14,15,15,13
8280,20,20,18,19,19,18,20,20,20,17
8310,15,15,13,14,12,13,15,15,15,12
8340,13,13,11,11,10,11,13,13,13,10
8370,12,12,9,9,9,12,12,11,12,8
8400,13,13,10,8,10,11,13,12,13,9
8430,12,12,11,11,12,11,12,12,12,11
8460,14,14,12,12,12,11,14,14,14,11
8490,14,14,10,9,12,12,14,14,14,10
8520,20,20,16,16,18,19,20,20,20,15
8550,18,18,14,15,16,17,18,18,18,13
8580,13,13,10,11,11,12,13,13,13,8
8610,12,12,9,10,10,12,12,12,12,8
8640,20,20,16,17,19,19,19,20,20,16
8670,13,13,9,11,13,11,12,13,13,9
8700,13,13,8,10,10,12,11,13,13,8
8730,13,13,8,11,8,10,12,12,13,8
8760,13,13,9,10,12,9,13,13,13,9
8790,5,5,3,4,4,4,5,5,5,3
8820,13,13,9,10,11,11,13,12,13,9
8850,12,12,9,9,9,11,12,12,12,8
8880,13,13,10,10,11,12,12,13,13,10
8910,11,11,8,8,10,10,11,11,11,8
8940,13,13,10,11,12,11,13,13,12,10
8970,11,11,10,11,10,10,11,11,11,10
9000,23,23,19,19,22,21,23,23,23,19
9030,22,22,17,17,21,20,22,22,22,16
9060,24,24,19,19,20,22,24,24,24,18
9090,22,21,16,18,18,18,22,22,22,16
9120,16,15,11,13,11,13,16,13,16,10
9150,10,10,9,8,8,9,10,10,10,7
9180,11,11,9,9,10,11,11,11,10,8
9210,10,10,7,9,10,9,10,10,10,8
9240,9,9,6,7,8,7,9,9,9,6
9270,10,10,6,8,6,8,10,10,10,7
9300,9,9,5,7,5,7,9,9,9,6
9330,12,12,10,10,10,10,11,12,12,9
9360,11,11,9,10,10,11,10,11,11,8
9390,21,21,18,19,19,19,21,20,21,17
9420,20,20,17,18,19,19,20,20,20,16
9450,19,19,15,16,18,19,19,19,19,14
9480,18,18,14,14,16,17,18,18,18,13
9510,14,14,10,12,10,13,14,14,14,10
9540,6,6,3,4,3,5,6,6,6,3
9570,13,11,9,10,11,11,13,13,12,9
9600,14,13,10,10,13,13,14,14,14,10
9630,14,13,10,9,12,13,14,14,14,10
9660,22,21,17,18,20,20,22,22,22,17
9690,20,19,16,17,18,17,20,20,20,16
9720,15,15,12,13,13,13,15,15,15,12
9750,13,13,10,10,11,12,13,13,13,10
9780,18,17,12,14,15,17,18,18,18,12
9810,13,13,10,11,13,12,13,13,13,10
9840,14,13,9,10,12,12,14,14,14,9
9870,22,20,17,18,21,22,21,21,22,17
9900,23,21,16,18,20,21,22,22,23,16
9930,14,13,9,10,11,11,13,13,14,9
9960,14,13,10,11,12,13,13,13,14,10
9990,21,20,15,18,18,18,20,20,21,15
10020,16,15,12,13,13,14,15,15,16,12
10050,16,15,11,12,14,14,16,15,16,12
10080,16,15,10,12,11,15,15,15,16,10
10110,19,19,13,16,17,19,19,19,19,14
10140,12,12,9,10,10,11,12,12,12,8
10170,10,10,6,7,8,8,10,10,10,7
10200,11,9,7,7,7,8,11,11,11,7
10230,11,9,5,7,6,9,11,11,11,6
10260,11,10,8,10,8,9,11,10,11,8
10290,10,10,6,7,7,8,10,9,9,6
10320,10,10,7,7,7,9,10,10,10,6
10350,8,7,4,5,6,8,8,8,8,5
10380,8,8,5,6,5,7,8,8,8,5
10410,3,2,0,0,0,0,3,3,2,0
10440,2,0,0,0,0,0,0,2,0,0
10470,2,0,0,0,0,0,0,1,0,0
10500,2,0,1,0,0,0,0,1,1,1
10530,9,8,6,6,9,9,7,9,9,6
10560,10,10,8,8,10,10,10,10,10,8
10590,10,10,8,8,9,10,10,10,10,8
10620,11,11,8,9,10,10,11,11,11,9
10650,12,12,10,11,12,10,12,12,12,10
10680,10,10,7,8,10,10,10,10,10,8
10710,5,5,4,4,5,4,5,5,5,4
10740,13,13,11,12,13,12,13,13,13,11
10770,13,13,11,12,13,11,13,13,13,12
10800,12,12,10,11,12,11,12,12,12,9
10830,19,19,16,18,17,19,19,19,19,16
10860,19,19,15,18,17,19,19,19,19,16
10890,11,11,8,10,10,9,11,11,11,8
10920,12,12,9,10,12,11,12,12,12,9
10950,11,11,8,10,10,11,11,11,11,9
10980,4,4,3,3,3,4,4,4,4,3
11010,10,10,8,10,10,9,8,10,10,8
11040,10,10,8,8,9,9,8,10,10,8
11070,10,10,7,8,9,10,8,10,10,7
11100,11,11,8,9,9,11,9,11,11,8
11130,11,11,8,8,8,10,9,10,11,7
11160,12,12,9,11,10,11,11,11,12,10
11190,14,14,11,12,12,12,14,14,14,11
11220,16,14,11,13,13,15,14,16,16,13
11250,20,20,17,18,19,18,20,20,19,17
11280,21,20,17,18,20,20,21,21,21,17
11310,14,14,11,13,14,12,13,14,14,13
11340,12,12,9,11,12,11,12,12,12,10
11370,11,11,9,9,11,10,11,10,11,10
11400,13,13,11,12,13,13,13,13,13,12
11430,12,12,10,10,12,12,11,12,12,10
11460,13,13,11,11,12,13,13,13,13,11
11490,14,14,11,11,12,13,14,14,14,11
11520,20,20,17,16,17,18,20,20,20,17
11550,13,13,11,11,11,10,13,13,13,12
11580,12,11,10,10,9,10,12,12,12,10
11610,14,14,10,9,11,14,14,14,13,11
11640,16,15,12,11,14,15,16,16,15,12
11670,12,11,8,8,7,11,12,12,12,8
11700,12,11,7,7,8,10,12,12,12,7
11730,11,9,5,6,6,9,11,11,11,5
11760,9,7,5,6,3,4,9,9,9,5
11790,7,5,4,4,5,6,7,7,7,5
11820,11,10,7,7,8,8,11,11,11,8
11850,12,11,8,8,9,9,12,12,12,9
11880,13,12,8,9,9,10,13,13,13,9
11910,21,21,17,19,19,19,21,21,21,17
11940,19,19,15,17,18,17,19,19,19,15
11970,15,15,11,12,13,13,15,15,15,12
